tmp_story_irq2.vcd
$timescale 1ns $end
$scope module top $end
$var wire 1 & gb_core__serial_irq $end
$var wire 5 v gb_core__if_r $end
$var wire 1 !Y gb_core__timer_irq $end
$var wire 4 "Q gb_core__joy_din $end
$var wire 8 "l joystick $end
$var wire 8 #) gb_core__cpu_do $end
$var wire 2 #I gb_core__joy_p54 $end
$var wire 1 #K gb_core__vblank_irq $end
$var wire 7 #f gb_core__video_unit__h_cnt $end
$var wire 1 $5 gb_core__video_irq $end
$var wire 1 $7 gb_core__video_unit__stat_irq_cond $end
$var wire 1 $> gb_core__old_ack $end
$var wire 8 $e gb_core__cpu_di $end
$var wire 1 %# gb_core__video_unit__irq $end
$var wire 16 %% gb_core__cpu_addr $end
$var wire 2 %0 gb_core__video_unit__mode $end
$var wire 1 %7 gb_core__video_unit__stat_irq_prev $end
$var wire 1 &9 gb_core__irq_n $end
$var wire 1 &G gb_core__cpu_m1_n $end
$var wire 8 &O gb_core__ie_r $end
$var wire 8 &u gb_core__video_unit__v_cnt $end
$var wire 1 'N gb_core__cpu_iorq_n $end
$upscope $end
$enddefinitions $end
$dumpvars
0&
b00000 v
0!Y
b0000 "Q
b00000000 "l
b00000000 #)
b00 #I
0#K
b0000000 #f
0$5
0$7
0$>
b00000000 $e
0%#
b0000000000000000 %%
b00 %0
0%7
0&9
0&G
b00000000 &O
b00000000 &u
0'N
$end
#0
0&
b00000001 "l
1#K
0$5
0$7
1$>
b0000000000000010 %%
0'N
#2
1&
1$5
#3
0&
0#K
#7
1&
#10
0&
0$5
#11
1#K
#14
1&
1$5
#15
0&
0#K
#19
1&
#22
0&
0$5
#23
1#K
#26
1&
1$5
#27
0&
0#K
#31
1&
#33
b0000000000000011 %%
#34
0&
0$5
#35
1#K
#38
1&
1$5
#39
0&
0#K
#43
1&
#46
0&
0$5
#47
1#K
#50
1&
1$5
#51
0&
0#K
#55
1&
#58
0&
0$5
#59
1#K
#62
1&
1$5
#63
0&
0#K
#67
1&
#70
0&
0$5
0$7
#74
1&
1$5
#78
0&
0$5
0$7
#82
1&
1$5
#86
0&
0$5
#90
1&
1$5
#91
1#K
#94
0&
0$5
1'N
#95
1&
0#K
#99
0&
#102
1&
1$5
#106
0&
0$5
#110
1&
1$5
#111
1#K
#114
0&
0$5
0'N
#115
0&
b01 #I
0#K
#119
0&
b00 #I
#122
1&
1$5
#126
0&
0$5
#127
1#K
#130
1&
1$5
1'N
#131
1&
b01 #I
0#K
#135
1&
b00 #I
#138
0&
0$5
#142
1&
1$5
#146
0&
0$5
#147
1#K
#150
1&
1$5
0'N
#151
0&
b01 #I
0#K
#155
1&
b00 #I
#158
0&
0$5
#159
1&
1#K
#162
0'N
#163
0&
0#K
#166
0'N
#167
0&
#170
0&
0$5
1$>
#174
1&
1$5
#175
1#K
#178
0&
0$5
1'N
#179
1&
0#K
#183
0&
#186
1&
1$5
#190
0&
0$5
#194
1&
1$5
#198
0&
0$5
0$7
#202
1&
1$5
#205
b0000000000000000 %%
#206
0&
0$5
#210
1&
1$5
#214
0&
0$5
#215
1#K
#218
1&
1$5
0'N
#219
0&
0#K
#223
1&
#226
0&
0$5
#230
1&
1$5
0$7
#234
0&
0$5
#235
1&
1#K
#238
1'N
#239
0&
0#K
#242
1'N
#243
0&
#246
1&
1$5
1$>
#250
0&
0$5
#254
1&
1$5
#258
0&
0$5
#262
1&
1$5
#263
1#K
#266
0&
0$5
1'N
#267
0#K
#270
1&
1$5
1'N
#271
1&
#275
1&
#278
0&
0$5
0$7
#282
1&
1$5
#283
1#K
#286
0&
0$5
0'N
#287
0#K
#290
0&
0$5
#294
1&
1$5
#295
1#K
#298
0&
0$5
1'N
#299
0#K
#302
1&
1$5
1'N
#303
0&
b01 #I
#307
1&
#310
1&
1$>
#311
1&
b00 #I
#314
1&
1$5
#318
0&
0$5
#319
1#K
#322
1&
1$5
1'N
#323
0#K
#326
0&
0$5
1'N
#327
0&
b01 #I
#331
1&
#334
1&
1$>
#335
0&
b00 #I
#338
1&
1$5
#342
0&
0$5
#346
1&
1$5
#350
0&
0$5
#351
1#K
#354
1&
1$5
0'N
#355
0&
b01 #I
0#K
#359
1&
b00 #I
#362
0&
0$5
#363
1#K
#366
1&
1$5
#367
0&
0#K
#371
1&
#374
0&
0$5
#375
1#K
#378
1&
1$5
#379
0&
0#K
#383
1&
#386
0&
0$5
0$7
#390
1&
1$5
#394
0&
0$5
0$7
#398
1&
1$5
#402
0&
0$5
#406
1&
1$5
#409
b0000000000000010 %%
#410
0&
0$5
#414
1&
1$5
#418
0&
0$5
#419
1#K
#422
1&
1$5
#423
0&
b01 #I
0#K
#427
1&
b00 #I
#430
0&
0$5
#431
1#K
#434
1&
1$5
#435
0&
0#K
#439
1&
#442
0&
0$5
#443
1#K
#446
1&
1$5
#447
0&
0#K
#451
1&
#454
0&
0$5
#455
1#K
#458
1&
1$5
#459
0&
0#K
#463
1&
#466
0&
0$5
#467
1#K
#470
1&
1$5
#471
0&
0#K
#475
1&
#478
0&
0$5
#479
1#K
#482
1&
1$5
#483
0&
0#K
#487
1&
#489
b0000000000000011 %%
#490
0&
0$5
#491
1#K
#494
1&
1$5
#495
0&
0#K
#499
1&
#502
0&
0$5
0$7
#506
1&
1$5
#510
0&
0$5
0$7
#514
1&
1$5
#518
0&
0$5
#522
1&
1$5
#523
1#K
#526
0&
0$5
1'N
#527
1&
0#K
#531
0&
#534
1&
1$5
#538
0&
0$5
#542
1&
1$5
#543
1#K
#546
0&
0$5
0'N
#547
0&
b01 #I
0#K
#551
0&
b00 #I
#554
1&
1$5
#558
0&
0$5
#559
1#K
#562
1&
1$5
1'N
#563
1&
b01 #I
0#K
#567
1&
b00 #I
#570
0&
0$5
#574
1&
1$5
#578
0&
0$5
#579
1#K
#582
1&
1$5
0'N
#583
0&
b01 #I
0#K
#587
1&
b00 #I
#590
0&
0$5
#591
1&
1#K
#594
0'N
#595
0&
0#K
#598
0'N
#599
0&
#602
0&
0$5
1$>
#606
1&
1$5
#607
1#K
#610
0&
0$5
1'N
#611
1&
0#K
#615
0&
#618
1&
1$5
#622
0&
0$5
#626
1&
1$5
#630
0&
0$5
0$7
#634
1&
1$5
#638
0&
0$5
#642
1&
1$5
#646
0&
0$5
#647
1#K
#650
1&
1$5
0'N
#651
0&
0#K
#655
1&
#658
0&
0$5
#661
b0000000000000000 %%
#662
1&
1$5
0$7
#666
0&
0$5
#667
1&
1#K
#670
1'N
#671
0&
0#K
#674
1'N
#675
0&
#678
1&
1$5
1$>
#682
0&
0$5
#686
1&
1$5
#690
0&
0$5
#694
1&
1$5
#695
1#K
#698
0&
0$5
1'N
#699
0#K
#702
1&
1$5
1'N
#703
1&
#707
1&
#710
0&
0$5
0$7
#714
1&
1$5
#715
1#K
#718
0&
0$5
0'N
#719
0#K
#722
0&
0$5
#726
1&
1$5
#727
1#K
#730
0&
0$5
1'N
#731
0#K
#734
1&
1$5
1'N
#735
0&
b01 #I
#739
1&
#742
1&
1$>
#743
1&
b00 #I
#746
1&
1$5
#750
0&
0$5
#751
1#K
#754
1&
1$5
1'N
#755
0#K
#758
0&
0$5
1'N
#759
0&
b01 #I
#763
1&
#766
1&
1$>
#767
0&
b00 #I
#770
1&
1$5
#774
0&
0$5
#778
1&
1$5
#782
0&
0$5
#783
1#K
#786
1&
1$5
0'N
#787
0&
b01 #I
0#K
#791
1&
b00 #I
#794
0&
0$5
#795
1#K
#798
1&
1$5
#799
0&
0#K
#803
1&
#806
0&
0$5
#807
1#K
#810
1&
1$5
#811
0&
0#K
#815
1&
#818
0&
0$5
0$7
#822
1&
1$5
#826
0&
0$5
0$7
#830
1&
1$5
#834
0&
0$5
#838
1&
1$5
#842
0&
0$5
#846
1&
1$5
#850
0&
0$5
#851
1#K
#854
1&
1$5
#855
0&
b01 #I
0#K
#859
1&
b00 #I
#862
0&
0$5
#863
1#K
#865
b0000000000000010 %%
#866
1&
1$5
#867
0&
0#K
#871
1&
#874
0&
0$5
#875
1#K
#878
1&
1$5
#879
0&
0#K
#883
1&
#886
0&
0$5
#887
1#K
#890
1&
1$5
#891
0&
0#K
#895
1&
#898
0&
0$5
#899
1#K
#902
1&
1$5
#903
0&
0#K
#907
1&
#910
0&
0$5
#911
1#K
#914
1&
1$5
#915
0&
0#K
#919
1&
#922
0&
0$5
#923
1#K
#926
1&
1$5
#927
0&
0#K
#931
1&
#934
0&
0$5
0$7
#938
1&
1$5
#942
0&
0$5
0$7
#945
b0000000000000011 %%
#946
1&
1$5
#950
0&
0$5
#954
1&
1$5
#955
1#K
#958
0&
0$5
1'N
#959
1&
0#K
#963
0&
#966
1&
1$5
#970
0&
0$5
#974
1&
1$5
#975
1#K
#978
0&
0$5
0'N
#979
0&
b01 #I
0#K
#983
0&
b00 #I
#986
1&
1$5
#990
0&
0$5
#991
1#K
#994
1&
1$5
1'N
#995
1&
b01 #I
0#K
#999
1&
b00 #I
#1002
0&
0$5
#1006
1&
1$5
#1010
0&
0$5
#1011
1#K
#1014
1&
1$5
0'N
#1015
0&
b01 #I
0#K
#1019
1&
b00 #I
#1022
0&
0$5
#1023
1&
1#K
#1026
0'N
#1027
0&
0#K
#1030
0'N
#1031
0&
#1034
0&
0$5
1$>
#1038
1&
1$5
#1039
1#K
#1042
0&
0$5
1'N
#1043
1&
0#K
#1047
0&
#1050
1&
1$5
#1054
0&
0$5
#1058
1&
1$5
#1062
0&
0$5
0$7
#1066
1&
1$5
#1070
0&
0$5
#1074
1&
1$5
#1078
0&
0$5
#1079
1#K
#1082
1&
1$5
0'N
#1083
0&
0#K
#1087
1&
#1090
0&
0$5
#1094
1&
1$5
0$7
#1098
0&
0$5
#1099
1&
1#K
#1102
1'N
#1103
0&
0#K
#1106
1'N
#1107
0&
#1110
1&
1$5
1$>
#1114
0&
0$5
#1117
b0000000000000000 %%
#1118
1&
1$5
#1122
0&
0$5
#1126
1&
1$5
#1127
1#K
#1130
0&
0$5
1'N
#1131
0#K
#1134
1&
1$5
1'N
#1135
1&
#1139
1&
#1142
0&
0$5
0$7
#1146
1&
1$5
#1147
1#K
#1150
0&
0$5
0'N
#1151
0#K
#1154
0&
0$5
#1158
1&
1$5
#1159
1#K
#1162
0&
0$5
1'N
#1163
0#K
#1166
1&
1$5
1'N
#1167
0&
b01 #I
#1171
1&
#1174
1&
1$>
#1175
1&
b00 #I
#1178
1&
1$5
#1182
0&
0$5
#1183
1#K
#1186
1&
1$5
1'N
#1187
0#K
#1190
0&
0$5
1'N
#1191
0&
b01 #I
#1195
1&
#1198
1&
1$>
#1199
0&
b00 #I
#1202
1&
1$5
#1206
0&
0$5
#1210
1&
1$5
#1214
0&
0$5
#1215
1#K
#1218
1&
1$5
0'N
#1219
0&
b01 #I
0#K
#1223
1&
b00 #I
#1226
0&
0$5
#1227
1#K
#1230
1&
1$5
#1231
0&
0#K
#1235
1&
#1238
0&
0$5
#1239
1#K
#1242
1&
1$5
#1243
0&
0#K
#1247
1&
#1250
0&
0$5
0$7
#1254
1&
1$5
#1258
0&
0$5
0$7
#1262
1&
1$5
#1266
0&
0$5
#1270
1&
1$5
#1274
0&
0$5
#1278
1&
1$5
#1282
0&
0$5
#1283
1#K
#1286
1&
1$5
#1287
0&
b01 #I
0#K
#1291
1&
b00 #I
#1294
0&
0$5
#1295
1#K
#1298
1&
1$5
#1299
0&
0#K
#1303
1&
#1306
0&
0$5
#1307
1#K
#1310
1&
1$5
#1311
0&
0#K
#1315
1&
#1318
0&
0$5
#1319
1#K
#1321
b0000000000000010 %%
#1322
1&
1$5
#1323
0&
0#K
#1327
1&
#1330
0&
0$5
#1331
1#K
#1334
1&
1$5
#1335
0&
0#K
#1339
1&
#1342
0&
0$5
#1343
1#K
#1346
1&
1$5
#1347
0&
0#K
#1351
1&
#1354
0&
0$5
#1355
1#K
#1358
1&
1$5
#1359
0&
0#K
#1363
1&
#1366
0&
0$5
0$7
#1370
1&
1$5
#1374
0&
0$5
0$7
#1378
1&
1$5
#1382
0&
0$5
#1386
1&
1$5
#1387
1#K
#1390
0&
0$5
1'N
#1391
1&
0#K
#1395
0&
#1398
1&
1$5
#1401
b0000000000000011 %%
#1402
0&
0$5
#1406
1&
1$5
#1407
1#K
#1410
0&
0$5
0'N
#1411
0&
b01 #I
0#K
#1415
0&
b00 #I
#1418
1&
1$5
#1422
0&
0$5
#1423
1#K
#1426
1&
1$5
1'N
#1427
1&
b01 #I
0#K
#1431
1&
b00 #I
#1434
0&
0$5
#1438
1&
1$5
#1442
0&
0$5
#1443
1#K
#1446
1&
1$5
0'N
#1447
0&
b01 #I
0#K
#1451
1&
b00 #I
#1454
0&
0$5
#1455
1&
1#K
#1458
0'N
#1459
0&
0#K
#1462
0'N
#1463
0&
#1466
0&
0$5
1$>
#1470
1&
1$5
#1471
1#K
#1474
0&
0$5
1'N
#1475
1&
0#K
#1479
0&
#1482
1&
1$5
#1486
0&
0$5
#1490
1&
1$5
#1494
0&
0$5
0$7
#1498
1&
1$5
#1502
0&
0$5
#1506
1&
1$5
#1510
0&
0$5
#1511
1#K
#1514
1&
1$5
0'N
#1515
0&
0#K
#1519
1&
#1522
0&
0$5
#1526
1&
1$5
0$7
#1530
0&
0$5
#1531
1&
1#K
#1534
1'N
#1535
0&
0#K
#1538
1'N
#1539
0&
#1542
1&
1$5
1$>
#1546
0&
0$5
#1550
1&
1$5
#1554
0&
0$5
#1558
1&
1$5
#1559
1#K
#1562
0&
0$5
1'N
#1563
0#K
#1566
1&
1$5
1'N
#1567
1&
#1571
1&
#1573
b0000000000000000 %%
#1574
0&
0$5
0$7
#1578
1&
1$5
#1579
1#K
#1582
0&
0$5
0'N
#1583
0#K
#1586
0&
0$5
#1590
1&
1$5
#1591
1#K
#1594
0&
0$5
1'N
#1595
0#K
#1598
1&
1$5
1'N
#1599
0&
b01 #I
#1603
1&
#1606
1&
1$>
#1607
1&
b00 #I
#1610
1&
1$5
#1614
0&
0$5
#1615
1#K
#1618
1&
1$5
1'N
#1619
0#K
#1622
0&
0$5
1'N
#1623
0&
b01 #I
#1627
1&
#1630
1&
1$>
#1631
0&
b00 #I
#1634
1&
1$5
#1638
0&
0$5
#1642
1&
1$5
#1646
0&
0$5
#1647
1#K
#1650
1&
1$5
0'N
#1651
0&
b01 #I
0#K
#1655
1&
b00 #I
#1658
0&
0$5
#1659
1#K
#1662
1&
1$5
#1663
0&
0#K
#1667
1&
#1670
0&
0$5
#1671
1#K
#1674
1&
1$5
#1675
0&
0#K
#1679
1&
#1682
0&
0$5
0$7
#1686
1&
1$5
#1690
0&
0$5
0$7
#1694
1&
1$5
#1698
0&
0$5
#1702
1&
1$5
#1706
0&
0$5
#1710
1&
1$5
#1714
0&
0$5
#1715
1#K
#1718
1&
1$5
#1719
0&
b01 #I
0#K
#1723
1&
b00 #I
#1726
0&
0$5
#1727
1#K
#1730
1&
1$5
#1731
0&
0#K
#1735
1&
#1738
0&
0$5
#1739
1#K
#1742
1&
1$5
#1743
0&
0#K
#1747
1&
#1750
0&
0$5
#1751
1#K
#1754
1&
1$5
#1755
0&
0#K
#1759
1&
#1762
0&
0$5
#1763
1#K
#1766
1&
1$5
#1767
0&
0#K
#1771
1&
#1774
0&
0$5
#1775
1#K
#1777
b0000000000000010 %%
#1778
1&
1$5
#1779
0&
0#K
#1783
1&
#1786
0&
0$5
#1787
1#K
#1790
1&
1$5
#1791
0&
0#K
#1795
1&
#1798
0&
0$5
0$7
#1802
1&
1$5
#1806
0&
0$5
0$7
#1810
1&
1$5
#1814
0&
0$5
#1818
1&
1$5
#1819
1#K
#1822
0&
0$5
1'N
#1823
1&
0#K
#1827
0&
#1830
1&
1$5
#1834
0&
0$5
#1838
1&
1$5
#1839
1#K
#1842
0&
0$5
0'N
#1843
0&
b01 #I
0#K
#1847
0&
b00 #I
#1850
1&
1$5
#1854
0&
0$5
#1855
1#K
#1857
b0000000000000011 %%
#1858
1&
1$5
1'N
#1859
1&
b01 #I
0#K
#1863
1&
b00 #I
#1866
0&
0$5
#1870
1&
1$5
#1874
0&
0$5
#1875
1#K
#1878
1&
1$5
0'N
#1879
0&
b01 #I
0#K
#1883
1&
b00 #I
#1886
0&
0$5
#1887
1&
1#K
#1890
0'N
#1891
0&
0#K
#1894
0'N
#1895
0&
#1898
0&
0$5
1$>
#1902
1&
1$5
#1903
1#K
#1906
0&
0$5
1'N
#1907
1&
0#K
#1911
0&
#1914
1&
1$5
#1918
0&
0$5
#1922
1&
1$5
#1926
0&
0$5
0$7
#1930
1&
1$5
#1934
0&
0$5
#1938
1&
1$5
#1942
0&
0$5
#1943
1#K
#1946
1&
1$5
0'N
#1947
0&
0#K
#1951
1&
#1954
0&
0$5
#1958
1&
1$5
0$7
#1962
0&
0$5
#1963
1&
1#K
#1966
1'N
#1967
0&
0#K
#1970
1'N
#1971
0&
#1974
1&
1$5
1$>
#1978
0&
0$5
#1982
1&
1$5
#1986
0&
0$5
#1990
1&
1$5
#1991
1#K
#1994
0&
0$5
1'N
#1995
0#K
#1998
1&
1$5
1'N
#1999
1&
#2003
1&
#2006
0&
0$5
0$7
#2010
1&
1$5
#2011
1#K
#2014
0&
0$5
0'N
#2015
0#K
#2018
0&
0$5
#2022
1&
1$5
#2023
1#K
#2026
0&
0$5
1'N
#2027
0#K
#2029
b0000000000000000 %%
#2030
1&
1$5
1'N
#2031
0&
b01 #I
#2035
1&
#2038
1&
1$>
#2039
1&
b00 #I
#2042
1&
1$5
#2046
0&
0$5
#2047
1#K
#2050
1&
1$5
1'N
#2051
0#K
#2054
0&
0$5
1'N
#2055
0&
b01 #I
#2059
1&
#2062
1&
1$>
#2063
0&
b00 #I
#2066
1&
1$5
#2070
0&
0$5
#2074
1&
1$5
#2078
0&
0$5
#2079
1#K
#2082
1&
1$5
0'N
#2083
0&
b01 #I
0#K
#2087
1&
b00 #I
#2090
0&
0$5
#2091
1#K
#2094
1&
1$5
#2095
0&
0#K
#2099
1&
#2102
0&
0$5
#2103
1#K
#2106
1&
1$5
#2107
0&
0#K
#2111
1&
#2114
0&
0$5
0$7
#2118
1&
1$5
#2122
0&
0$5
0$7
#2126
1&
1$5
#2130
0&
0$5
#2134
1&
1$5
#2138
0&
0$5
#2142
1&
1$5
#2146
0&
0$5
#2147
1#K
#2150
1&
1$5
#2151
0&
b01 #I
0#K
#2155
1&
b00 #I
#2158
0&
0$5
#2159
1#K
#2162
1&
1$5
#2163
0&
0#K
#2167
1&
#2170
0&
0$5
#2171
1#K
#2174
1&
1$5
#2175
0&
0#K
#2179
1&
#2182
0&
0$5
#2183
1#K
#2186
1&
1$5
#2187
0&
0#K
#2191
1&
#2194
0&
0$5
#2195
1#K
#2198
1&
1$5
#2199
0&
0#K
#2203
1&
#2206
0&
0$5
#2207
1#K
#2210
1&
1$5
#2211
0&
0#K
#2215
1&
#2218
0&
0$5
#2219
1#K
#2222
1&
1$5
#2223
0&
0#K
#2227
1&
#2230
0&
0$5
0$7
#2233
b0000000000000010 %%
#2234
1&
1$5
#2238
0&
0$5
0$7
#2242
1&
1$5
#2246
0&
0$5
#2250
1&
1$5
#2251
1#K
#2254
0&
0$5
1'N
#2255
1&
0#K
#2259
0&
#2262
1&
1$5
#2266
0&
0$5
#2270
1&
1$5
#2271
1#K
#2274
0&
0$5
0'N
#2275
0&
b01 #I
0#K
#2279
0&
b00 #I
#2282
1&
1$5
#2286
0&
0$5
#2287
1#K
#2290
1&
1$5
1'N
#2291
1&
b01 #I
0#K
#2295
1&
b00 #I
#2298
0&
0$5
#2302
1&
1$5
#2306
0&
0$5
#2307
1#K
#2310
1&
1$5
0'N
#2311
0&
b01 #I
0#K
#2313
b0000000000000011 %%
#2315
1&
b00 #I
#2318
0&
0$5
#2319
1&
1#K
#2322
0'N
#2323
0&
0#K
#2326
0'N
#2327
0&
#2330
0&
0$5
1$>
#2334
1&
1$5
#2335
1#K
#2338
0&
0$5
1'N
#2339
1&
0#K
#2343
0&
#2346
1&
1$5
#2350
0&
0$5
#2354
1&
1$5
#2358
0&
0$5
0$7
#2362
1&
1$5
#2366
0&
0$5
#2370
1&
1$5
#2374
0&
0$5
#2375
1#K
#2378
1&
1$5
0'N
#2379
0&
0#K
#2383
1&
#2386
0&
0$5
#2390
1&
1$5
0$7
#2394
0&
0$5
#2395
1&
1#K
#2398
1'N
#2399
0&
0#K
#2402
1'N
#2403
0&
#2406
1&
1$5
1$>
#2410
0&
0$5
#2414
1&
1$5
#2418
0&
0$5
#2422
1&
1$5
#2423
1#K
#2426
0&
0$5
1'N
#2427
0#K
#2430
1&
1$5
1'N
#2431
1&
#2435
1&
#2438
0&
0$5
0$7
#2442
1&
1$5
#2443
1#K
#2446
0&
0$5
0'N
#2447
0#K
#2450
0&
0$5
#2454
1&
1$5
#2455
1#K
#2458
0&
0$5
1'N
#2459
0#K
#2462
1&
1$5
1'N
#2463
0&
b01 #I
#2467
1&
#2470
1&
1$>
#2471
1&
b00 #I
#2474
1&
1$5
#2478
0&
0$5
#2479
1#K
#2482
1&
1$5
1'N
#2483
0#K
#2485
b0000000000000000 %%
#2486
0&
0$5
1'N
#2487
0&
b01 #I
#2491
1&
#2494
1&
1$>
#2495
0&
b00 #I
#2498
1&
1$5
#2502
0&
0$5
#2506
1&
1$5
#2510
0&
0$5
#2511
1#K
#2514
1&
1$5
0'N
#2515
0&
b01 #I
0#K
#2519
1&
b00 #I
#2522
0&
0$5
#2523
1#K
#2526
1&
1$5
#2527
0&
0#K
#2531
1&
#2534
0&
0$5
#2535
1#K
#2538
1&
1$5
#2539
0&
0#K
#2543
1&
#2546
0&
0$5
0$7
#2550
1&
1$5
#2554
0&
0$5
0$7
#2558
1&
1$5
#2562
0&
0$5
#2566
1&
1$5
#2570
0&
0$5
#2574
1&
1$5
#2578
0&
0$5
#2579
1#K
#2582
1&
1$5
#2583
0&
b01 #I
0#K
#2587
1&
b00 #I
#2590
0&
0$5
#2591
1#K
#2594
1&
1$5
#2595
0&
0#K
#2599
1&
#2602
0&
0$5
#2603
1#K
#2606
1&
1$5
#2607
0&
0#K
#2611
1&
#2614
0&
0$5
#2615
1#K
#2618
1&
1$5
#2619
0&
0#K
#2623
1&
#2626
0&
0$5
#2627
1#K
#2630
1&
1$5
#2631
0&
0#K
#2635
1&
#2638
0&
0$5
#2639
1#K
#2642
1&
1$5
#2643
0&
0#K
#2647
1&
#2650
0&
0$5
#2651
1#K
#2654
1&
1$5
#2655
0&
0#K
#2659
1&
#2662
0&
0$5
0$7
#2666
1&
1$5
#2670
0&
0$5
0$7
#2674
1&
1$5
#2678
0&
0$5
#2682
1&
1$5
#2683
1#K
#2686
0&
0$5
1'N
#2687
1&
0#K
#2689
b0000000000000010 %%
#2691
0&
#2694
1&
1$5
#2698
0&
0$5
#2702
1&
1$5
#2703
1#K
#2706
0&
0$5
0'N
#2707
0&
b01 #I
0#K
#2711
0&
b00 #I
#2714
1&
1$5
#2718
0&
0$5
#2719
1#K
#2722
1&
1$5
1'N
#2723
1&
b01 #I
0#K
#2727
1&
b00 #I
#2730
0&
0$5
#2734
1&
1$5
#2738
0&
0$5
#2739
1#K
#2742
1&
1$5
0'N
#2743
0&
b01 #I
0#K
#2747
1&
b00 #I
#2750
0&
0$5
#2751
1&
1#K
#2754
0'N
#2755
0&
0#K
#2758
0'N
#2759
0&
#2762
0&
0$5
1$>
#2766
1&
1$5
#2767
1#K
#2769
b0000000000000011 %%
#2770
0&
0$5
1'N
#2771
1&
0#K
#2775
0&
#2778
1&
1$5
#2782
0&
0$5
#2786
1&
1$5
#2790
0&
0$5
0$7
#2794
1&
1$5
#2798
0&
0$5
#2802
1&
1$5
#2806
0&
0$5
#2807
1#K
#2810
1&
1$5
0'N
#2811
0&
0#K
#2815
1&
#2818
0&
0$5
#2822
1&
1$5
0$7
#2826
0&
0$5
#2827
1&
1#K
#2830
1'N
#2831
0&
0#K
#2834
1'N
#2835
0&
#2838
1&
1$5
1$>
#2842
0&
0$5
#2846
1&
1$5
#2850
0&
0$5
#2854
1&
1$5
#2855
1#K
#2858
0&
0$5
1'N
#2859
0#K
#2862
1&
1$5
1'N
#2863
1&
#2867
1&
#2870
0&
0$5
0$7
#2874
1&
1$5
#2875
1#K
#2878
0&
0$5
0'N
#2879
0#K
#2882
0&
0$5
#2886
1&
1$5
#2887
1#K
#2890
0&
0$5
1'N
#2891
0#K
#2894
1&
1$5
1'N
#2895
0&
b01 #I
#2899
1&
#2902
1&
1$>
#2903
1&
b00 #I
#2906
1&
1$5
#2910
0&
0$5
#2911
1#K
#2914
1&
1$5
1'N
#2915
0#K
#2918
0&
0$5
1'N
#2919
0&
b01 #I
#2923
1&
#2926
1&
1$>
#2927
0&
b00 #I
#2930
1&
1$5
#2934
0&
0$5
#2938
1&
1$5
#2941
b0000000000000000 %%
#2942
0&
0$5
#2943
1#K
#2946
1&
1$5
0'N
#2947
0&
b01 #I
0#K
#2951
1&
b00 #I
#2954
0&
0$5
#2955
1#K
#2958
1&
1$5
#2959
0&
0#K
#2963
1&
#2966
0&
0$5
#2967
1#K
#2970
1&
1$5
#2971
0&
0#K
#2975
1&
#2978
0&
0$5
0$7
#2982
1&
1$5
#2986
0&
0$5
0$7
#2990
1&
1$5
#2994
0&
0$5
#2998
1&
1$5
#3002
0&
0$5
#3006
1&
1$5
#3010
0&
0$5
#3011
1#K
#3014
1&
1$5
#3015
0&
b01 #I
0#K
#3019
1&
b00 #I
#3022
0&
0$5
#3023
1#K
#3026
1&
1$5
#3027
0&
0#K
#3031
1&
#3034
0&
0$5
#3035
1#K
#3038
1&
1$5
#3039
0&
0#K
#3043
1&
#3046
0&
0$5
#3047
1#K
#3050
1&
1$5
#3051
0&
0#K
#3055
1&
#3058
0&
0$5
#3059
1#K
#3062
1&
1$5
#3063
0&
0#K
#3067
1&
#3070
0&
0$5
#3071
1#K
#3074
1&
1$5
#3075
0&
0#K
#3079
1&
#3082
0&
0$5
#3083
1#K
#3086
1&
1$5
#3087
0&
0#K
#3091
1&
#3094
0&
0$5
0$7
#3098
1&
1$5
#3102
0&
0$5
0$7
#3106
1&
1$5
#3110
0&
b00001000 #)
0$5
#3114
1&
1$5
#3115
1#K
#3118
0&
0$5
1'N
#3119
1&
0#K
#3123
0&
#3126
1&
1$5
#3130
0&
0$5
#3134
1&
1$5
#3135
1#K
#3138
0&
0$5
0'N
#3139
0&
b01 #I
0#K
#3143
0&
b00 #I
#3145
b0000000000000010 %%
#3146
1&
1$5
#3150
0&
0$5
#3151
1#K
#3154
1&
1$5
1'N
#3155
1&
b01 #I
0#K
#3159
1&
b00 #I
#3162
0&
0$5
#3166
1&
1$5
#3170
0&
0$5
#3171
1#K
#3174
1&
1$5
0'N
#3175
0&
b01 #I
0#K
#3179
1&
b00 #I
#3182
0&
0$5
#3183
1&
1#K
#3186
0'N
#3187
0&
0#K
#3190
0'N
#3191
0&
#3194
0&
0$5
1$>
#3198
1&
1$5
#3199
1#K
#3202
0&
0$5
1'N
#3203
1&
0#K
#3207
0&
#3210
1&
1$5
#3214
0&
0$5
#3218
1&
1$5
#3222
0&
0$5
0$7
#3225
b0000000000000011 %%
#3226
1&
1$5
#3230
0&
0$5
#3234
1&
1$5
#3238
0&
0$5
#3239
1#K
#3242
1&
1$5
0'N
#3243
0&
0#K
#3247
1&
#3250
0&
0$5
#3254
1&
1$5
0$7
#3258
0&
0$5
#3259
1&
1#K
#3262
1'N
#3263
0&
0#K
#3266
1'N
#3267
0&
#3270
1&
1$5
1$>
#3274
0&
0$5
#3278
1&
1$5
#3282
0&
0$5
#3290
1&
1$5
#3291
1#K
#3294
0&
0$5
1'N
#3295
0#K
#3298
1&
1$5
1'N
#3299
1&
#3303
1&
#3306
0&
0$5
#3310
1&
1$5
#3311
1#K
#3314
0&
0$5
0'N
#3315
0#K
#3318
0&
0$5
#3322
1&
1$5
#3323
1#K
#3326
0&
0$5
1'N
#3327
0#K
#3330
1&
1$5
1'N
#3331
0&
b01 #I
#3335
1&
#3338
1&
1$>
#3339
1&
b00 #I
#3342
1&
1$5
#3346
0&
0$5
#3347
1#K
#3350
1&
1$5
1'N
#3351
0#K
#3354
0&
0$5
1'N
#3355
0&
b01 #I
#3359
1&
#3362
1&
1$>
#3363
0&
b00 #I
#3366
1&
1$5
#3370
0&
0$5
#3374
1&
1$5
#3378
0&
0$5
#3379
1#K
#3382
1&
1$5
0'N
#3383
0&
b01 #I
0#K
#3387
1&
b00 #I
#3390
0&
0$5
#3391
1#K
#3394
1&
1$5
#3395
0&
0#K
#3397
b0000000000000000 %%
#3399
1&
#3402
0&
0$5
#3403
1#K
#3406
1&
1$5
#3407
0&
0#K
#3411
1&
#3414
0&
0$5
0$7
#3418
1&
1$5
#3422
0&
0$5
0$7
#3426
1&
1$5
#3430
0&
0$5
#3434
1&
1$5
#3438
0&
0$5
#3442
1&
1$5
#3446
0&
0$5
#3447
1#K
#3450
1&
1$5
#3451
0&
b01 #I
0#K
#3455
1&
b00 #I
#3458
0&
0$5
#3459
1#K
#3462
1&
1$5
#3463
0&
0#K
#3467
1&
#3470
0&
0$5
#3471
1#K
#3474
1&
1$5
#3475
0&
0#K
#3479
1&
#3482
0&
0$5
#3483
1#K
#3486
1&
1$5
#3487
0&
0#K
#3491
1&
#3494
0&
0$5
#3495
1#K
#3498
1&
1$5
#3499
0&
0#K
#3503
1&
#3506
0&
0$5
#3507
1#K
#3510
1&
1$5
#3511
0&
0#K
#3515
1&
#3518
0&
0$5
#3519
1#K
#3522
1&
1$5
#3523
0&
0#K
#3527
1&
#3530
0&
0$5
0$7
#3534
1&
1$5
#3538
0&
0$5
0$7
#3542
1&
1$5
#3546
0&
0$5
#3550
1&
1$5
#3551
1#K
#3554
0&
0$5
1'N
#3555
1&
0#K
