tmp_joy_story.vcd
$timescale 1ns $end
$scope module gameboy $end
$var wire 8 * joystick $end
$var wire 1 / gb_core__irq_ack $end
$var wire 8 !& gb_core__cpu_do $end
$var wire 1 "3 gb_core__sel_joy $end
$var wire 8 "> gb_core__ie_r $end
$var wire 1 "V gb_core__cpu_mreq_n $end
$var wire 4 "W gb_core__joy_din_prev $end
$var wire 1 ${ gb_core__cpu_wr_n $end
$var wire 2 %" gb_core__joy_p54 $end
$var wire 16 %O debug_pc $end
$var wire 5 %h gb_core__if_r $end
$var wire 16 &$ gb_core__cpu_addr $end
$var wire 8 &- gb_core__cpu_di $end
$var wire 4 &_ gb_core__joy_din_sampled $end
$var wire 1 &{ gb_core__cpu_rd_n $end
$var wire 8 'A gb_core__joy_do $end
$upscope $end
$enddefinitions $end
$dumpvars
b00000000 *
0/
b00000000 !&
0"3
b00000000 ">
0"V
b0000 "W
0${
b00 %"
b0000000000000000 %O
b00000 %h
b0000000000000000 &$
b00000000 &-
b0000 &_
0&{
b00000000 'A
$end
#0
b00001110 *
1/
b00000001 !&
1${
b00001 %h
b0010000000000000 &$
1&{
#3
b11110000 *
#7
b10001011 *
#11
b11100110 *
#19
b00001111 *
#23
b11111110 *
#27
b00001111 *
#31
b11001010 *
#35
b01010000 *
#39
b00000001 *
#43
b11110000 *
#47
b10001100 *
#51
b11100110 *
#59
b00001111 *
#63
b11001001 *
#67
b11001101 *
#79
b00100000 *
#83
b01011100 *
#87
b11111010 *
#91
b10110100 *
#95
b11000001 *
#99
b11111110 *
#101
0/
0${
#107
b00000001 *
#111
b00100000 *
#115
b00001100 *
#119
b11111010 *
#123
b11111110 *
#127
b00000010 *
#131
b00100000 *
#135
b00001100 *
#139
b11111010 *
#143
b11111110 *
#147
b00000011 *
#151
b00100000 *
#155
b00001100 *
#159
b11111010 *
#163
b11111110 *
#167
b00000100 *
#171
b00100000 *
#175
b00011111 *
#179
b11111010 *
#187
b10110001 *
#191
b11000001 *
#195
b10100111 *
#203
b00100000 *
#207
b10011111 *
#211
b11001101 *
#219
b01111101 *
#223
b00100011 *
#227
b00100000 *
#239
b11001101 *
#243
b01100111 *
#247
b00010001 *
#251
b11110000 *
#263
b00111110 *
#267
b00100000 *
#271
b11100000 *
#275
b00000000 *
#279
b11110000 *
#287
b00000000 *
#291
b11110000 *
#299
b00000000 *
#303
b00101111 *
#305
0/
0${
#311
b11100110 *
#315
b00001111 *
#319
b11001011 *
#323
b00110111 *
#327
b01000111 *
#331
b00111110 *
#335
b00010000 *
#339
b11100000 *
#343
b00000000 *
#347
b11110000 *
#355
b00000000 *
#359
b11110000 *
#367
b00000000 *
#371
b11110000 *
#379
b00000000 *
#383
b11110000 *
#385
1/
1${
#391
b00000000 *
#395
b11110000 *
#403
b00000000 *
#407
b11110000 *
#415
b00000000 *
#419
b00101111 *
#427
b11100110 *
#431
b00001111 *
#435
b10110000 *
#439
b01001111 *
#443
b11110000 *
#447
b10001011 *
#451
b10101001 *
#459
b10100001 *
#463
b11100000 *
#467
b10001100 *
#471
b01111001 *
#479
b11100000 *
#483
b10001011 *
#487
b00111110 *
#495
b00110000 *
#499
b11100000 *
#503
b00000000 *
#507
b11001001 *
#515
b00001110 *
#527
b11110000 *
#531
b10001011 *
#535
b11100110 *
#543
b00001111 *
#547
b11111110 *
#551
b00001111 *
#555
b11001010 *
#557
0/
0${
#559
b01010000 *
#563
b00000001 *
#567
b11110000 *
#571
b10001100 *
#575
b11100110 *
#583
b00001111 *
#587
b11001001 *
#591
b11001101 *
#603
b00100000 *
#607
b01011100 *
#611
b11111010 *
#615
b10110100 *
#619
b11000001 *
#623
b11111110 *
#631
b00000001 *
#635
b00100000 *
#639
b00001100 *
#643
b11111010 *
#647
b11111110 *
#651
b00000010 *
#655
b00100000 *
#659
b00001100 *
#663
b11111010 *
#667
b11111110 *
#671
b00000011 *
#675
b00100000 *
#679
b00001100 *
#683
b11111010 *
#687
b11111110 *
#691
b00000100 *
#695
b00100000 *
#699
b00011111 *
#703
b11111010 *
#711
b10110001 *
#715
b11000001 *
#719
b10100111 *
#727
b00100000 *
#731
b10011111 *
#735
b11001101 *
#743
b01111101 *
#747
b00100011 *
#751
b00100000 *
#761
0/
0${
#763
b11001101 *
#767
b01100111 *
#771
b00010001 *
#775
b11110000 *
#787
b00111110 *
#791
b00100000 *
#795
b11100000 *
#799
b00000000 *
#803
b11110000 *
#811
b00000000 *
#815
b11110000 *
#823
b00000000 *
#827
b00101111 *
#835
b11100110 *
#839
b00001111 *
#841
1/
1${
#843
b11001011 *
#847
b00110111 *
#851
b01000111 *
#855
b00111110 *
#859
b00010000 *
#863
b11100000 *
#867
b00000000 *
#871
b11110000 *
#879
b00000000 *
#883
b11110000 *
#891
b00000000 *
#895
b11110000 *
#903
b00000000 *
#907
b11110000 *
#915
b00000000 *
#919
b11110000 *
#927
b00000000 *
#931
b11110000 *
#939
b00000000 *
#943
b00101111 *
#951
b11100110 *
#955
b00001111 *
#959
b10110000 *
#963
b01001111 *
#967
b11110000 *
#971
b10001011 *
#975
b10101001 *
#983
b10100001 *
#987
b11100000 *
#991
b10001100 *
#995
b01111001 *
#1003
b11100000 *
#1007
b10001011 *
#1011
b00111110 *
#1013
0/
0${
#1019
b00110000 *
#1023
b11100000 *
#1027
b00000000 *
#1031
b11001001 *
#1039
b00001110 *
#1051
b11110000 *
#1055
b10001011 *
#1059
b11100110 *
#1067
b00001111 *
#1071
b11111110 *
#1075
b00001111 *
#1079
b11001010 *
#1083
b01010000 *
#1087
b00000001 *
#1091
b11110000 *
#1095
b10001100 *
#1099
b11100110 *
#1107
b00001111 *
#1111
b11001001 *
#1115
b11001101 *
#1127
b00100000 *
#1131
b01011100 *
#1135
b11111010 *
#1139
b10110100 *
#1143
b11000001 *
#1147
b11111110 *
#1155
b00000001 *
#1159
b00100000 *
#1163
b00001100 *
#1167
b11111010 *
#1171
b11111110 *
#1175
b00000010 *
#1179
b00100000 *
#1183
b00001100 *
#1187
b11111010 *
#1191
b11111110 *
#1195
b00000011 *
#1199
b00100000 *
#1203
b00001100 *
#1207
b11111010 *
#1211
b11111110 *
#1215
b00000100 *
#1217
0/
0${
#1219
b00100000 *
#1223
b00011111 *
#1227
b11111010 *
#1235
b10110001 *
#1239
b11000001 *
#1243
b10100111 *
#1251
b00100000 *
#1255
b10011111 *
#1259
b11001101 *
#1267
b01111101 *
#1271
b00100011 *
#1275
b00100000 *
#1287
b11001101 *
#1291
b01100111 *
#1295
b00010001 *
#1297
1/
1${
#1299
b11110000 *
#1311
b00111110 *
#1315
b00100000 *
#1319
b11100000 *
#1323
b00000000 *
#1327
b11110000 *
#1335
b00000000 *
#1339
b11110000 *
#1347
b00000000 *
#1351
b00101111 *
#1359
b11100110 *
#1363
b00001111 *
#1367
b11001011 *
#1371
b00110111 *
#1375
b01000111 *
#1379
b00111110 *
#1383
b00010000 *
#1387
b11100000 *
#1391
b00000000 *
#1395
b11110000 *
#1403
b00000000 *
#1407
b11110000 *
#1415
b00000000 *
#1419
b11110000 *
#1427
b00000000 *
#1431
b11110000 *
#1439
b00000000 *
#1443
b11110000 *
#1451
b00000000 *
#1455
b11110000 *
#1463
b00000000 *
#1467
b00101111 *
#1469
0/
0${
#1475
b11100110 *
#1479
b00001111 *
#1483
b10110000 *
#1487
b01001111 *
#1491
b11110000 *
#1495
b10001011 *
#1499
b10101001 *
#1507
b10100001 *
#1511
b11100000 *
#1515
b10001100 *
#1519
b01111001 *
#1527
b11100000 *
#1531
b10001011 *
#1535
b00111110 *
#1543
b00110000 *
#1547
b11100000 *
#1551
b00000000 *
#1555
b11001001 *
#1563
b00001110 *
#1575
b11110000 *
#1579
b10001011 *
#1583
b11100110 *
#1591
b00001111 *
#1595
b11111110 *
#1599
b00001111 *
#1603
b11001010 *
#1607
b01010000 *
#1611
b00000001 *
#1615
b11110000 *
#1619
b10001100 *
#1623
b11100110 *
#1631
b00001111 *
#1635
b11001001 *
#1639
b11001101 *
#1651
b00100000 *
#1655
b01011100 *
#1659
b11111010 *
#1663
b10110100 *
#1667
b11000001 *
#1671
b11111110 *
#1673
0/
0${
#1679
b00000001 *
#1683
b00100000 *
#1687
b00001100 *
#1691
b11111010 *
#1695
b11111110 *
#1699
b00000010 *
#1703
b00100000 *
#1707
b00001100 *
#1711
b11111010 *
#1715
b11111110 *
#1719
b00000011 *
#1723
b00100000 *
#1727
b00001100 *
#1731
b11111010 *
#1735
b11111110 *
#1739
b00000100 *
#1743
b00100000 *
#1747
b00011111 *
#1751
b11111010 *
#1753
1/
1${
#1759
b10110001 *
#1763
b11000001 *
#1767
b10100111 *
#1775
b00100000 *
#1779
b10011111 *
#1783
b11001101 *
#1791
b01111101 *
#1795
b00100011 *
#1799
b00100000 *
#1811
b11001101 *
#1815
b01100111 *
#1819
b00010001 *
#1823
b11110000 *
#1835
b00111110 *
#1839
b00100000 *
#1843
b11100000 *
#1847
b00000000 *
#1851
b11110000 *
#1859
b00000000 *
#1863
b11110000 *
#1871
b00000000 *
#1875
b00101111 *
#1883
b11100110 *
#1887
b00001111 *
#1891
b11001011 *
#1895
b00110111 *
#1899
b01000111 *
#1903
b00111110 *
#1907
b00010000 *
#1911
b11100000 *
#1915
b00000000 *
#1919
b11110000 *
#1925
0/
0${
#1927
b00000000 *
#1931
b11110000 *
#1939
b00000000 *
#1943
b11110000 *
#1951
b00000000 *
#1955
b11110000 *
#1963
b00000000 *
#1967
b11110000 *
#1975
b00000000 *
#1979
b11110000 *
#1987
b00000000 *
#1991
b00101111 *
#1999
b11100110 *
#2003
b00001111 *
#2007
b10110000 *
#2011
b01001111 *
#2015
b11110000 *
#2019
b10001011 *
#2023
b10101001 *
#2031
b10100001 *
#2035
b11100000 *
#2039
b10001100 *
#2043
b01111001 *
#2051
b11100000 *
#2055
b10001011 *
#2059
b00111110 *
#2067
b00110000 *
#2071
b11100000 *
#2075
b00000000 *
#2079
b11001001 *
#2087
b00001110 *
#2099
b11110000 *
#2103
b10001011 *
#2107
b11100110 *
#2115
b00001111 *
#2119
b11111110 *
#2123
b00001111 *
#2127
b11001010 *
#2129
0/
0${
#2131
b01010000 *
#2135
b00000001 *
#2139
b11110000 *
#2143
b10001100 *
#2147
b11100110 *
#2155
b00001111 *
#2159
b11001001 *
#2163
b11001101 *
#2175
b00100000 *
#2179
b01011100 *
#2183
b11111010 *
#2187
b10110100 *
#2191
b11000001 *
#2195
b11111110 *
#2203
b00000001 *
#2207
b00100000 *
#2209
1/
1${
#2211
b00001100 *
#2215
b11111010 *
#2219
b11111110 *
#2223
b00000010 *
#2227
b00100000 *
#2231
b00001100 *
#2235
b11111010 *
#2239
b11111110 *
#2243
b00000011 *
#2247
b00100000 *
#2251
b00001100 *
#2255
b11111010 *
#2259
b11111110 *
#2263
b00000100 *
#2267
b00100000 *
#2271
b00011111 *
#2275
b11111010 *
#2283
b10110001 *
#2287
b11000001 *
#2291
b10100111 *
#2299
b00100000 *
#2303
b10011111 *
#2307
b11001101 *
#2315
b01111101 *
#2319
b00100011 *
#2323
b00100000 *
#2335
b11001101 *
#2339
b01100111 *
#2343
b00010001 *
#2347
b11110000 *
#2359
b00111110 *
#2363
b00100000 *
#2367
b11100000 *
#2371
b00000000 *
#2375
b11110000 *
#2381
0/
0${
#2383
b00000000 *
#2387
b11110000 *
#2395
b00000000 *
#2399
b00101111 *
#2407
b11100110 *
#2411
b00001111 *
#2415
b11001011 *
#2419
b00110111 *
#2423
b01000111 *
#2427
b00111110 *
#2431
b00010000 *
#2435
b11100000 *
#2439
b00000000 *
#2443
b11110000 *
#2451
b00000000 *
#2455
b11110000 *
#2463
b00000000 *
#2467
b11110000 *
#2475
b00000000 *
#2479
b11110000 *
#2487
b00000000 *
#2491
b11110000 *
#2499
b00000000 *
#2503
b11110000 *
#2511
b00000000 *
#2515
b00101111 *
#2523
b11100110 *
#2527
b00001111 *
#2531
b10110000 *
#2535
b01001111 *
#2539
b11110000 *
#2543
b10001011 *
#2547
b10101001 *
#2555
b10100001 *
#2559
b11100000 *
#2563
b10001100 *
#2567
b01111001 *
#2575
b11100000 *
#2579
b10001011 *
#2583
b00111110 *
#2585
0/
0${
#2591
b00110000 *
#2595
b11100000 *
#2599
b00000000 *
#2603
b11001001 *
#2611
b00001110 *
#2623
b11110000 *
#2627
b10001011 *
#2631
b11100110 *
#2639
b00001111 *
#2643
b11111110 *
#2647
b00001111 *
#2651
b11001010 *
#2655
b01010000 *
#2659
b00000001 *
#2663
b11110000 *
#2665
1/
1${
#2667
b10001100 *
#2671
b11100110 *
#2679
b00001111 *
#2683
b11001001 *
#2687
b11001101 *
#2699
b00100000 *
#2703
b01011100 *
#2707
b11111010 *
#2711
b10110100 *
#2715
b11000001 *
#2719
b11111110 *
#2727
b00000001 *
#2731
b00100000 *
#2735
b00001100 *
#2739
b11111010 *
#2743
b11111110 *
#2747
b00000010 *
#2751
b00100000 *
#2755
b00001100 *
#2759
b11111010 *
#2763
b11111110 *
#2767
b00000011 *
#2771
b00100000 *
#2775
b00001100 *
#2779
b11111010 *
#2783
b11111110 *
#2787
b00000100 *
#2791
b00100000 *
#2795
b00011111 *
#2799
b11111010 *
#2807
b10110001 *
#2811
b11000001 *
#2815
b10100111 *
#2823
b00100000 *
#2827
b10011111 *
#2831
b11001101 *
#2837
0/
0${
#2839
b01111101 *
#2843
b00100011 *
#2847
b00100000 *
#2859
b11001101 *
#2863
b01100111 *
#2867
b00010001 *
#2871
b11110000 *
#2883
b00111110 *
#2887
b00100000 *
#2891
b11100000 *
#2895
b00000000 *
#2899
b11110000 *
#2907
b00000000 *
#2911
b11110000 *
#2919
b00000000 *
#2923
b00101111 *
#2931
b11100110 *
#2935
b00001111 *
#2939
b11001011 *
#2943
b00110111 *
#2947
b01000111 *
#2951
b00111110 *
#2955
b00010000 *
#2959
b11100000 *
#2963
b00000000 *
#2967
b11110000 *
#2975
b00000000 *
#2979
b11110000 *
#2987
b00000000 *
#2991
b11110000 *
#2999
b00000000 *
#3003
b11110000 *
#3011
b00000000 *
#3015
b11110000 *
#3023
b00000000 *
#3027
b11110000 *
#3035
b00000000 *
#3039
b00101111 *
#3041
0/
0${
#3047
b11100110 *
#3051
b00001111 *
#3055
b10110000 *
#3059
b01001111 *
#3063
b11110000 *
#3067
b10001011 *
#3071
b10101001 *
#3079
b10100001 *
#3083
b11100000 *
#3087
b10001100 *
#3091
b01111001 *
#3099
b11100000 *
#3103
b10001011 *
#3107
b00111110 *
#3115
b00110000 *
#3119
b11100000 *
#3121
1/
1${
#3123
b00000000 *
#3127
b11001001 *
#3135
b00001110 *
#3147
b11110000 *
#3151
b10001011 *
#3155
b11100110 *
#3163
b00001111 *
#3167
b11111110 *
#3171
b00001111 *
#3175
b11001010 *
#3179
b01010000 *
#3183
b00000001 *
#3187
b11110000 *
#3191
b10001100 *
#3195
b11100110 *
#3203
b00001111 *
#3207
b11001001 *
#3211
b11001101 *
#3223
b00100000 *
#3227
b01011100 *
#3231
b11111010 *
#3235
b10110100 *
#3239
b11000001 *
#3243
b11111110 *
#3251
b00000001 *
#3255
b00100000 *
#3259
b00001100 *
#3263
b11111010 *
#3267
b11111110 *
#3271
b00000010 *
#3275
b00100000 *
#3279
b00001100 *
#3283
b11111010 *
#3287
b11111110 *
#3291
b00000011 *
#3293
0/
0${
#3295
b00100000 *
#3299
b00001100 *
#3303
b11111010 *
#3307
b11111110 *
#3311
b00000100 *
#3315
b00100000 *
#3319
b00011111 *
#3323
b11111010 *
#3331
b10110001 *
#3335
b11000001 *
#3339
b10100111 *
#3347
b00100000 *
#3351
b10011111 *
#3355
b11001101 *
#3363
b01111101 *
#3367
b00100011 *
#3371
b00100000 *
#3383
b11001101 *
#3387
b01100111 *
#3391
b00010001 *
#3395
b11110000 *
#3407
b00111110 *
#3411
b00100000 *
#3415
b11100000 *
#3419
b00000000 *
#3423
b11110000 *
#3431
b00000000 *
#3435
b11110000 *
#3443
b00000000 *
#3447
b00101111 *
#3455
b11100110 *
#3459
b00001111 *
#3463
b11001011 *
#3467
b00110111 *
#3471
b01000111 *
#3475
b00111110 *
#3479
b00010000 *
#3483
b11100000 *
#3487
b00000000 *
#3491
b11110000 *
#3497
0/
0${
#3499
b00000000 *
#3503
b11110000 *
#3511
b00000000 *
#3515
b11110000 *
#3523
b00000000 *
#3527
b11110000 *
#3535
b00000000 *
#3539
b11110000 *
#3547
b00000000 *
#3551
b11110000 *
#3559
b00000000 *
#3563
b00101111 *
#3571
b11100110 *
#3575
b00001111 *
#3577
1/
1${
#3579
b10110000 *
#3583
b01001111 *
#3587
b11110000 *
#3591
b10001011 *
#3595
b10101001 *
#3603
b10100001 *
#3607
b11100000 *
#3611
b10001100 *
#3615
b01111001 *
#3623
b11100000 *
#3627
b10001011 *
#3631
b00111110 *
#3639
b00110000 *
#3643
b11100000 *
#3647
b00000000 *
#3651
b11001001 *
#3659
b00001110 *
#3671
b11110000 *
#3675
b10001011 *
#3679
b11100110 *
#3687
b00001111 *
#3691
b11111110 *
#3695
b00001111 *
#3699
b11001010 *
#3703
b01010000 *
#3707
b00000001 *
#3711
b11110000 *
#3715
b10001100 *
#3719
b11100110 *
#3727
b00001111 *
#3731
b11001001 *
#3735
b11001101 *
#3747
b00100000 *
#3749
0/
0${
#3751
b01011100 *
#3755
b11111010 *
#3759
b10110100 *
#3763
b11000001 *
#3767
b11111110 *
#3775
b00000001 *
#3779
b00100000 *
#3783
b00001100 *
#3787
b11111010 *
#3791
b11111110 *
#3795
b00000010 *
#3799
b00100000 *
#3803
b00001100 *
#3807
b11111010 *
#3811
b11111110 *
#3815
b00000011 *
#3819
b00100000 *
#3823
b00001100 *
#3827
b11111010 *
#3831
b11111110 *
#3835
b00000100 *
#3839
b00100000 *
#3843
b00011111 *
#3847
b11111010 *
#3855
b10110001 *
#3859
b11000001 *
#3863
b10100111 *
#3871
b00100000 *
#3875
b10011111 *
#3879
b11001101 *
#3887
b01111101 *
#3891
b00100011 *
#3895
b00100000 *
#3907
b11001101 *
#3911
b01100111 *
#3915
b00010001 *
#3919
b11110000 *
#3931
b00111110 *
#3935
b00100000 *
#3939
b11100000 *
#3943
b00000000 *
#3947
b11110000 *
#3953
0/
0${
#3955
b00000000 *
#3959
b11110000 *
#3967
b00000000 *
#3971
b00101111 *
#3979
b11100110 *
#3983
b00001111 *
#3987
b11001011 *
#3991
b00110111 *
#3995
b01000111 *
#3999
b00111110 *
#4003
b00010000 *
#4007
b11100000 *
#4011
b00000000 *
#4015
b11110000 *
#4023
b00000000 *
#4027
b11110000 *
#4033
1/
1${
#4035
b00000000 *
#4039
b11110000 *
#4047
b00000000 *
#4051
b11110000 *
#4059
b00000000 *
#4063
b11110000 *
#4071
b00000000 *
#4075
b11110000 *
#4083
b00000000 *
#4087
b00101111 *
#4095
b11100110 *
#4099
b00001111 *
#4103
b10110000 *
#4107
b01001111 *
#4111
b11110000 *
#4115
b10001011 *
#4119
b10101001 *
#4127
b10100001 *
#4131
b11100000 *
#4135
b10001100 *
#4139
b01111001 *
#4147
b11100000 *
#4151
b10001011 *
#4155
b00111110 *
#4163
b00110000 *
#4167
b11100000 *
#4171
b00000000 *
#4175
b11001001 *
#4183
b00001110 *
#4195
b11110000 *
#4199
b10001011 *
#4203
b11100110 *
#4205
0/
0${
#4211
b00001111 *
#4215
b11111110 *
#4219
b00001111 *
#4223
b11001010 *
#4227
b01010000 *
#4231
b00000001 *
#4235
b11110000 *
#4239
b10001100 *
#4243
b11100110 *
#4251
b00001111 *
#4255
b11001001 *
#4259
b11001101 *
#4271
b00100000 *
#4275
b01011100 *
#4279
b11111010 *
#4283
b10110100 *
#4287
b11000001 *
#4291
b11111110 *
#4299
b00000001 *
#4303
b00100000 *
#4307
b00001100 *
#4311
b11111010 *
#4315
b11111110 *
#4319
b00000010 *
#4323
b00100000 *
#4327
b00001100 *
#4331
b11111010 *
#4335
b11111110 *
#4339
b00000011 *
#4343
b00100000 *
#4347
b00001100 *
#4351
b11111010 *
#4355
b11111110 *
#4359
b00000100 *
#4363
b00100000 *
#4367
b00011111 *
#4371
b11111010 *
#4379
b10110001 *
#4383
b11000001 *
#4387
b10100111 *
#4395
b00100000 *
#4399
b10011111 *
#4403
b11001101 *
#4409
0/
0${
#4411
b01111101 *
#4415
b00100011 *
#4419
b00100000 *
#4431
b11001101 *
#4435
b01100111 *
#4439
b00010001 *
#4443
b11110000 *
#4455
b00111110 *
#4459
b00100000 *
#4463
b11100000 *
#4467
b00000000 *
#4471
b11110000 *
#4479
b00000000 *
#4483
b11110000 *
#4489
1/
1${
#4491
b00000000 *
#4495
b00101111 *
#4503
b11100110 *
#4507
b00001111 *
#4511
b11001011 *
#4515
b00110111 *
#4519
b01000111 *
#4523
b00111110 *
#4527
b00010000 *
#4531
b11100000 *
#4535
b00000000 *
#4539
b11110000 *
#4547
b00000000 *
#4551
b11110000 *
#4559
b00000000 *
#4563
b11110000 *
#4571
b00000000 *
#4575
b11110000 *
#4583
b00000000 *
#4587
b11110000 *
#4595
b00000000 *
#4599
b11110000 *
#4607
b00000000 *
#4611
b00101111 *
#4619
b11100110 *
#4623
b00001111 *
#4627
b10110000 *
#4631
b01001111 *
#4635
b11110000 *
#4639
b10001011 *
#4643
b10101001 *
#4651
b10100001 *
#4655
b11100000 *
#4659
b10001100 *
#4661
0/
0${
#4663
b01111001 *
#4671
b11100000 *
#4675
b10001011 *
#4679
b00111110 *
#4687
b00110000 *
#4691
b11100000 *
#4695
b00000000 *
#4699
b11001001 *
#4707
b00001110 *
#4719
b11110000 *
#4723
b10001011 *
#4727
b11100110 *
#4735
b00001111 *
#4739
b11111110 *
#4743
b00001111 *
#4747
b11001010 *
#4751
b01010000 *
#4755
b00000001 *
#4759
b11110000 *
#4763
b10001100 *
#4767
b11100110 *
#4775
b00001111 *
#4779
b11001001 *
#4783
b11001101 *
#4795
b00100000 *
#4799
b01011100 *
#4803
b11111010 *
#4807
b10110100 *
#4811
b11000001 *
#4815
b11111110 *
#4823
b00000001 *
#4827
b00100000 *
#4831
b00001100 *
#4835
b11111010 *
#4839
b11111110 *
#4843
b00000010 *
#4847
b00100000 *
#4851
b00001100 *
#4855
b11111010 *
#4859
b11111110 *
#4863
b00000011 *
#4865
0/
0${
#4867
b00100000 *
#4871
b00001100 *
#4875
b11111010 *
#4879
b11111110 *
#4883
b00000100 *
#4887
b00100000 *
#4891
b00011111 *
#4895
b11111010 *
#4903
b10110001 *
#4907
b11000001 *
#4911
b10100111 *
#4919
b00100000 *
#4923
b10011111 *
#4927
b11001101 *
#4935
b01111101 *
#4939
b00100011 *
#4943
b00100000 *
#4945
1/
1${
#4955
b11001101 *
#4959
b01100111 *
#4963
b00010001 *
#4967
b11110000 *
#4979
b00111110 *
#4983
b00100000 *
#4987
b11100000 *
#4991
b00000000 *
#4995
b11110000 *
#5003
b00000000 *
#5007
b11110000 *
#5015
b00000000 *
#5019
b00101111 *
#5027
b11100110 *
#5031
b00001111 *
#5035
b11001011 *
#5039
b00110111 *
#5043
b01000111 *
#5047
b00111110 *
#5051
b00010000 *
#5055
b11100000 *
#5059
b00000000 *
#5063
b11110000 *
#5071
b00000000 *
#5075
b11110000 *
#5083
b00000000 *
#5087
b11110000 *
#5095
b00000000 *
#5099
b11110000 *
#5107
b00000000 *
#5111
b11110000 *
#5117
0/
0${
#5119
b00000000 *
#5123
b11110000 *
#5131
b00000000 *
#5135
b00101111 *
#5143
b11100110 *
#5147
b00001111 *
#5151
b10110000 *
#5155
b01001111 *
#5159
b11110000 *
#5163
b10001011 *
#5167
b10101001 *
#5175
b10100001 *
#5179
b11100000 *
#5183
b10001100 *
#5187
b01111001 *
#5195
b11100000 *
#5199
b10001011 *
#5203
b00111110 *
#5211
b00110000 *
#5215
b11100000 *
#5219
b00000000 *
#5223
b11001001 *
#5231
b00001110 *
#5243
b11110000 *
#5247
b10001011 *
#5251
b11100110 *
#5259
b00001111 *
#5263
b11111110 *
#5267
b00001111 *
#5271
b11001010 *
#5275
b01010000 *
#5279
b00000001 *
#5283
b11110000 *
#5287
b10001100 *
#5291
b11100110 *
#5299
b00001111 *
#5303
b11001001 *
#5307
b11001101 *
#5319
b00100000 *
#5321
0/
0${
#5323
b01011100 *
#5327
b11111010 *
#5331
b10110100 *
#5335
b11000001 *
#5339
b11111110 *
#5347
b00000001 *
#5351
b00100000 *
#5355
b00001100 *
#5359
b11111010 *
#5363
b11111110 *
#5367
b00000010 *
#5371
b00100000 *
#5375
b00001100 *
#5379
b11111010 *
#5383
b11111110 *
#5387
b00000011 *
#5391
b00100000 *
#5395
b00001100 *
#5399
b11111010 *
#5401
1/
1${
#5403
b11111110 *
#5407
b00000100 *
#5411
b00100000 *
#5415
b00011111 *
#5419
b11111010 *
#5427
b10110001 *
#5431
b11000001 *
#5435
b10100111 *
#5443
b00100000 *
#5447
b10011111 *
#5451
b11001101 *
#5459
b01111101 *
#5463
b00100011 *
#5467
b00100000 *
#5479
b11001101 *
#5483
b01100111 *
#5487
b00010001 *
#5491
b11110000 *
#5503
b00111110 *
#5507
b00100000 *
#5511
b11100000 *
#5515
b00000000 *
#5519
b11110000 *
#5527
b00000000 *
#5531
b11110000 *
#5539
b00000000 *
#5543
b00101111 *
#5551
b11100110 *
#5555
b00001111 *
#5559
b11001011 *
#5563
b00110111 *
#5567
b01000111 *
#5571
b00111110 *
#5573
0/
0${
#5575
b00010000 *
#5579
b11100000 *
#5583
b00000000 *
#5587
b11110000 *
#5595
b00000000 *
#5599
b11110000 *
#5607
b00000000 *
#5611
b11110000 *
#5619
b00000000 *
#5623
b11110000 *
#5631
b00000000 *
#5635
b11110000 *
#5643
b00000000 *
#5647
b11110000 *
#5655
b00000000 *
#5659
b00101111 *
#5667
b11100110 *
#5671
b00001111 *
#5675
b10110000 *
#5679
b01001111 *
#5683
b11110000 *
#5687
b10001011 *
#5691
b10101001 *
#5699
b10100001 *
#5703
b11100000 *
#5707
b10001100 *
#5711
b01111001 *
#5719
b11100000 *
#5723
b10001011 *
#5727
b00111110 *
#5735
b00110000 *
#5739
b11100000 *
#5743
b00000000 *
#5747
b11001001 *
#5755
b00001110 *
#5767
b11110000 *
#5771
b10001011 *
#5775
b11100110 *
#5777
0/
0${
#5783
b00001111 *
#5787
b11111110 *
#5791
b00001111 *
#5795
b11001010 *
#5799
b01010000 *
#5803
b00000001 *
#5807
b11110000 *
#5811
b10001100 *
#5815
b11100110 *
#5823
b00001111 *
#5827
b11001001 *
#5831
b11001101 *
#5843
b00100000 *
#5847
b01011100 *
#5851
b11111010 *
#5855
b10110100 *
#5857
1/
1${
#5859
b11000001 *
#5863
b11111110 *
#5871
b00000001 *
#5875
b00100000 *
#5879
b00001100 *
#5883
b11111010 *
#5887
b11111110 *
#5891
b00000010 *
#5895
b00100000 *
#5899
b00001100 *
#5903
b11111010 *
#5907
b11111110 *
#5911
b00000011 *
#5915
b00100000 *
#5919
b00001100 *
#5923
b11111010 *
#5927
b11111110 *
#5931
b00000100 *
#5935
b00100000 *
#5939
b00011111 *
#5943
b11111010 *
#5951
b10110001 *
#5955
b11000001 *
#5959
b10100111 *
#5967
b00100000 *
#5971
b10011111 *
#5975
b11001101 *
#5983
b01111101 *
#5987
b00100011 *
#5991
b00100000 *
#6003
b11001101 *
#6007
b01100111 *
#6011
b00010001 *
#6015
b11110000 *
#6027
b00111110 *
#6029
0/
0${
#6031
b00100000 *
#6035
b11100000 *
#6039
b00000000 *
#6043
b11110000 *
#6051
b00000000 *
#6055
b11110000 *
#6063
b00000000 *
#6067
b00101111 *
#6075
b11100110 *
#6079
b00001111 *
#6083
b11001011 *
#6087
b00110111 *
#6091
b01000111 *
#6095
b00111110 *
#6099
b00010000 *
#6103
b11100000 *
#6107
b00000000 *
#6111
b11110000 *
#6119
b00000000 *
#6123
b11110000 *
#6131
b00000000 *
#6135
b11110000 *
#6143
b00000000 *
#6147
b11110000 *
#6155
b00000000 *
#6159
b11110000 *
#6167
b00000000 *
#6171
b11110000 *
#6179
b00000000 *
#6183
b00101111 *
#6191
b11100110 *
#6195
b00001111 *
#6199
b10110000 *
#6203
b01001111 *
#6207
b11110000 *
#6211
b10001011 *
#6215
b10101001 *
#6223
b10100001 *
#6227
b11100000 *
#6231
b10001100 *
#6233
0/
0${
#6235
b01111001 *
#6243
b11100000 *
#6247
b10001011 *
#6251
b00111110 *
#6259
b00110000 *
#6263
b11100000 *
#6267
b00000000 *
#6271
b11001001 *
#6279
b00001110 *
#6291
b11110000 *
#6295
b10001011 *
#6299
b11100110 *
#6307
b00001111 *
#6311
b11111110 *
#6313
1/
1${
#6315
b00001111 *
#6319
b11001010 *
#6323
b01010000 *
#6327
b00000001 *
#6331
b11110000 *
#6335
b10001100 *
#6339
b11100110 *
#6347
b00001111 *
#6351
b11001001 *
#6355
b11001101 *
#6367
b00100000 *
#6371
b01011100 *
#6375
b11111010 *
#6379
b10110100 *
#6383
b11000001 *
#6387
b11111110 *
#6395
b00000001 *
#6399
b00100000 *
#6403
b00001100 *
#6407
b11111010 *
#6411
b11111110 *
#6415
b00000010 *
#6419
b00100000 *
#6423
b00001100 *
#6427
b11111010 *
#6431
b11111110 *
#6435
b00000011 *
#6439
b00100000 *
#6443
b00001100 *
#6447
b11111010 *
#6451
b11111110 *
#6455
b00000100 *
#6459
b00100000 *
#6463
b00011111 *
#6467
b11111010 *
#6475
b10110001 *
#6479
b11000001 *
#6483
b10100111 *
#6485
0/
0${
#6491
b00100000 *
#6495
b10011111 *
#6499
b11001101 *
#6507
b01111101 *
#6511
b00100011 *
#6515
b00100000 *
#6527
b11001101 *
#6531
b01100111 *
#6535
b00010001 *
#6539
b11110000 *
#6551
b00111110 *
#6555
b00100000 *
