tmp_trace_manual_capture.vcd
$timescale 1ns $end
$scope module gameboy $end
$var wire 16 @ debug_pc $end
$var wire 1 !~ gb_core__lcd_clkena $end
$var wire 1 #C gb_core__video_unit__lcd_clkena $end
$var wire 2 #a lcd_data_gb $end
$var wire 1 $3 lcd_clkena $end
$var wire 16 %( gb_core__cpu__debug_pc $end
$var wire 2 &f gb_core__lcd_data_gb $end
$var wire 2 &n gb_core__video_unit__lcd_data_gb $end
$upscope $end
$enddefinitions $end
$dumpvars
b0000000000000000 @
0!~
0#C
b00 #a
0$3
b0000000000000000 %(
b00 &f
b00 &n
$end
#0
b0000000000000010 @
b10000 #a
1$3
#1
b0000000000000011 @
#2
b0000000000000100 @
#3
b0000000000000001 @
#4
b0000000000000010 @
#5
b0000000000000011 @
#6
b0000000000000100 @
0$3
#7
b0000000000000001 @
#8
b0000000000000010 @
#9
b0000000000000011 @
b1000 #a
#10
b0000000000000100 @
#11
b0000000000000001 @
#12
b0000000000000010 @
#13
b0000000000000011 @
#14
b0000000000000100 @
#15
b0000000000000001 @
#16
b0000000000000010 @
#17
b0000000000000011 @
b111000 #a
#18
b0000000000000100 @
#19
b0000000000000001 @
#20
b0000000000000010 @
#21
b0000000000000011 @
b110000 #a
#22
b0000000000000100 @
#23
b0000000000000001 @
#24
b0000000000000010 @
#25
b0000000000000011 @
b100000 #a
#26
b0000000000000100 @
#27
b0000000000000001 @
1#C
#28
b0000000000000010 @
#29
b0000000000000011 @
#30
b0000000000000100 @
#31
b0000000000000001 @
0#C
#32
b0000000000000010 @
#33
b0000000000000011 @
#34
b0000000000000100 @
#35
b0000000000000001 @
#36
b0000000000000010 @
#37
b0000000000000011 @
b101000 #a
#38
b0000000000000100 @
#39
b0000000000000001 @
#40
b0000000000000010 @
#41
b0000000000000011 @
#42
b0000000000000100 @
#43
b0000000000000001 @
#44
b0000000000000010 @
#45
b0000000000000011 @
b10000 #a
#46
b0000000000000100 @
#47
b0000000000000001 @
#48
b0000000000000010 @
#49
b0000000000000011 @
#50
b0000000000000100 @
#51
b0000000000000001 @
#52
b0000000000000010 @
#53
b0000000000000011 @
#54
b0000000000000100 @
#55
b0000000000000001 @
#56
b0000000000000010 @
#57
b0000000000000011 @
#58
b0000000000000100 @
1$3
#59
b0000000000000001 @
#60
b0000000000000010 @
#61
b0000000000000011 @
b1000 #a
#62
b0000000000000100 @
#63
b0000000000000001 @
#64
b0000000000000010 @
#65
b0000000000000011 @
#66
b0000000000000100 @
#67
b0000000000000001 @
#68
b0000000000000010 @
#69
b0000000000000011 @
b111000 #a
#70
b0000000000000100 @
#71
b0000000000000001 @
#72
b0000000000000010 @
#73
b0000000000000011 @
b110000 #a
#74
b0000000000000100 @
#75
b0000000000000001 @
#76
b0000000000000010 @
#77
b0000000000000011 @
b100000 #a
#78
b0000000000000100 @
#79
b0000000000000001 @
1#C
#80
b0000000000000010 @
#81
b0000000000000011 @
#82
b0000000000000100 @
#83
b0000000000000001 @
0#C
#84
b0000000000000010 @
#85
b0000000000000011 @
#86
b0000000000000100 @
#87
b0000000000000001 @
#88
b0000000000000010 @
#89
b0000000000000011 @
b101000 #a
#90
b0000000000000100 @
#91
b0000000000000001 @
#92
b0000000000000010 @
#93
b0000000000000011 @
#94
b0000000000000100 @
#95
b0000000000000001 @
#96
b0000000000000010 @
#97
b0000000000000011 @
b10000 #a
#98
b0000000000000100 @
#99
b0000000000000001 @
#100
b0000000000000010 @
#101
b0000000000000011 @
#102
b0000000000000100 @
#103
b0000000000000001 @
#104
b0000000000000010 @
#105
b0000000000000011 @
#106
b0000000000000100 @
#107
b0000000000000001 @
#108
b0000000000000010 @
#109
b0000000000000011 @
#110
b0000000000000100 @
0$3
#111
b0000000000000001 @
#112
b0000000000000010 @
#113
b0000000000000011 @
b1000 #a
#114
b0000000000000100 @
#115
b0000000000000001 @
#116
b0000000000000010 @
#117
b0000000000000011 @
#118
b0000000000000100 @
#119
b0000000000000001 @
#120
b0000000000000010 @
#121
b0000000000000011 @
b111000 #a
#122
b0000000000000100 @
#123
b0000000000000001 @
#124
b0000000000000010 @
#125
b0000000000000011 @
b110000 #a
#126
b0000000000000100 @
#127
b0000000000000001 @
#128
b0000000000000010 @
#129
b0000000000000011 @
b100000 #a
#130
b0000000000000100 @
#131
b0000000000000001 @
1#C
#132
b0000000000000010 @
#133
b0000000000000011 @
#134
b0000000000000100 @
#135
b0000000000000001 @
0#C
#136
b0000000000000010 @
#137
b0000000000000011 @
#138
b0000000000000100 @
#139
b0000000000000001 @
#140
b0000000000000010 @
#141
b0000000000000011 @
b101000 #a
#142
b0000000000000100 @
#143
b0000000000000001 @
#144
b0000000000000010 @
#145
b0000000000000011 @
#146
b0000000000000100 @
#147
b0000000000000001 @
#148
b0000000000000010 @
#149
b0000000000000011 @
b10000 #a
#150
b0000000000000100 @
#151
b0000000000000001 @
#152
b0000000000000010 @
#153
b0000000000000011 @
#154
b0000000000000100 @
#155
b0000000000000001 @
#156
b0000000000000010 @
#157
b0000000000000011 @
#158
b0000000000000100 @
#159
b0000000000000001 @
#160
b0000000000000010 @
#161
b0000000000000011 @
#162
b0000000000000100 @
1$3
#163
b0000000000000001 @
#164
b0000000000000010 @
#165
b0000000000000011 @
b1000 #a
#166
b0000000000000100 @
#167
b0000000000000001 @
#168
b0000000000000010 @
#169
b0000000000000011 @
#170
b0000000000000100 @
#171
b0000000000000001 @
#172
b0000000000000010 @
#173
b0000000000000011 @
b111000 #a
#174
b0000000000000100 @
#175
b0000000000000001 @
#176
b0000000000000010 @
#177
b0000000000000011 @
b110000 #a
#178
b0000000000000100 @
#179
b0000000000000001 @
#180
b0000000000000010 @
#181
b0000000000000011 @
b100000 #a
#182
b0000000000000100 @
#183
b0000000000000001 @
1#C
#184
b0000000000000010 @
#185
b0000000000000011 @
#186
b0000000000000100 @
#187
b0000000000000001 @
0#C
#188
b0000000000000010 @
#189
b0000000000000011 @
#190
b0000000000000100 @
#191
b0000000000000001 @
#192
b0000000000000010 @
#193
b0000000000000011 @
b101000 #a
#194
b0000000000000100 @
#195
b0000000000000001 @
#196
b0000000000000010 @
#197
b0000000000000011 @
#198
b0000000000000100 @
#199
b0000000000000001 @
#200
b0000000000000010 @
#201
b0000000000000011 @
b10000 #a
#202
b0000000000000100 @
#203
b0000000000000001 @
#204
b0000000000000010 @
#205
b0000000000000011 @
#206
b0000000000000100 @
#207
b0000000000000001 @
#208
b0000000000000010 @
#209
b0000000000000011 @
#210
b0000000000000100 @
#211
b0000000000000001 @
#212
b0000000000000010 @
#213
b0000000000000011 @
#214
b0000000000000100 @
0$3
#215
b0000000000000001 @
#216
b0000000000000010 @
#217
b0000000000000011 @
b1000 #a
#218
b0000000000000100 @
#219
b0000000000000001 @
#220
b0000000000000010 @
#221
b0000000000000011 @
#222
b0000000000000100 @
#223
b0000000000000001 @
#224
b0000000000000010 @
#225
b0000000000000011 @
b111000 #a
#226
b0000000000000100 @
#227
b0000000000000001 @
#228
b0000000000000010 @
#229
b0000000000000011 @
b110000 #a
#230
b0000000000000100 @
#231
b0000000000000001 @
#232
b0000000000000010 @
#233
b0000000000000011 @
b100000 #a
#234
b0000000000000100 @
#235
b0000000000000001 @
1#C
#236
b0000000000000010 @
#237
b0000000000000011 @
#238
b0000000000000100 @
#239
b0000000000000001 @
0#C
#240
b0000000000000010 @
#241
b0000000000000011 @
#242
b0000000000000100 @
#243
b0000000000000001 @
#244
b0000000000000010 @
#245
b0000000000000011 @
b101000 #a
#246
b0000000000000100 @
#247
b0000000000000001 @
#248
b0000000000000010 @
#249
b0000000000000011 @
#250
b0000000000000100 @
#251
b0000000000000001 @
#252
b0000000000000010 @
#253
b0000000000000011 @
b10000 #a
#254
b0000000000000100 @
#255
b0000000000000001 @
#256
b0000000000000010 @
#257
b0000000000000011 @
#258
b0000000000000100 @
#259
b0000000000000001 @
#260
b0000000000000010 @
#261
b0000000000000011 @
#262
b0000000000000100 @
#263
b0000000000000001 @
#264
b0000000000000010 @
#265
b0000000000000011 @
#266
b0000000000000100 @
1$3
#267
b0000000000000001 @
#268
b0000000000000010 @
#269
b0000000000000011 @
b1000 #a
#270
b0000000000000100 @
#271
b0000000000000001 @
#272
b0000000000000010 @
#273
b0000000000000011 @
#274
b0000000000000100 @
#275
b0000000000000001 @
#276
b0000000000000010 @
#277
b0000000000000011 @
b111000 #a
#278
b0000000000000100 @
#279
b0000000000000001 @
#280
b0000000000000010 @
#281
b0000000000000011 @
b110000 #a
#282
b0000000000000100 @
#283
b0000000000000001 @
#284
b0000000000000010 @
#285
b0000000000000011 @
b100000 #a
#286
b0000000000000100 @
#287
b0000000000000001 @
1#C
#288
b0000000000000010 @
#289
b0000000000000011 @
#290
b0000000000000100 @
#291
b0000000000000001 @
0#C
#292
b0000000000000010 @
#293
b0000000000000011 @
#294
b0000000000000100 @
#295
b0000000000000001 @
#296
b0000000000000010 @
#297
b0000000000000011 @
b101000 #a
#298
b0000000000000100 @
#299
b0000000000000001 @
#300
b0000000000000010 @
#301
b0000000000000011 @
#302
b0000000000000100 @
#303
b0000000000000001 @
#304
b0000000000000010 @
#305
b0000000000000011 @
b10000 #a
#306
b0000000000000100 @
#307
b0000000000000001 @
#308
b0000000000000010 @
#309
b0000000000000011 @
#310
b0000000000000100 @
#311
b0000000000000001 @
#312
b0000000000000010 @
#313
b0000000000000011 @
#314
b0000000000000100 @
#315
b0000000000000001 @
#316
b0000000000000010 @
#317
b0000000000000011 @
#318
b0000000000000100 @
0$3
#319
b0000000000000001 @
#320
b0000000000000010 @
#321
b0000000000000011 @
b1000 #a
#322
b0000000000000100 @
#323
b0000000000000001 @
#324
b0000000000000010 @
#325
b0000000000000011 @
#326
b0000000000000100 @
#327
b0000000000000001 @
#328
b0000000000000010 @
#329
b0000000000000011 @
b111000 #a
#330
b0000000000000100 @
#331
b0000000000000001 @
#332
b0000000000000010 @
#333
b0000000000000011 @
b110000 #a
#334
b0000000000000100 @
#335
b0000000000000001 @
#336
b0000000000000010 @
#337
b0000000000000011 @
b100000 #a
#338
b0000000000000100 @
#339
b0000000000000001 @
1#C
#340
b0000000000000010 @
#341
b0000000000000011 @
#342
b0000000000000100 @
#343
b0000000000000001 @
0#C
#344
b0000000000000010 @
#345
b0000000000000011 @
#346
b0000000000000100 @
#347
b0000000000000001 @
#348
b0000000000000010 @
#349
b0000000000000011 @
b101000 #a
#350
b0000000000000100 @
#351
b0000000000000001 @
#352
b0000000000000010 @
#353
b0000000000000011 @
#354
b0000000000000100 @
#355
b0000000000000001 @
#356
b0000000000000010 @
#357
b0000000000000011 @
b10000 #a
#358
b0000000000000100 @
#359
b0000000000000001 @
#360
b0000000000000010 @
#361
b0000000000000011 @
#362
b0000000000000100 @
#363
b0000000000000001 @
#364
b0000000000000010 @
#365
b0000000000000011 @
#366
b0000000000000100 @
#367
b0000000000000001 @
#368
b0000000000000010 @
#369
b0000000000000011 @
#370
b0000000000000100 @
1$3
#371
b0000000000000001 @
#372
b0000000000000010 @
#373
b0000000000000011 @
b1000 #a
#374
b0000000000000100 @
#375
b0000000000000001 @
#376
b0000000000000010 @
#377
b0000000000000011 @
#378
b0000000000000100 @
#379
b0000000000000001 @
#380
b0000000000000010 @
#381
b0000000000000011 @
b111000 #a
#382
b0000000000000100 @
#383
b0000000000000001 @
#384
b0000000000000010 @
#385
b0000000000000011 @
b110000 #a
#386
b0000000000000100 @
#387
b0000000000000001 @
#388
b0000000000000010 @
#389
b0000000000000011 @
b100000 #a
#390
b0000000000000100 @
#391
b0000000000000001 @
1#C
#392
b0000000000000010 @
#393
b0000000000000011 @
#394
b0000000000000100 @
#395
b0000000000000001 @
0#C
#396
b0000000000000010 @
#397
b0000000000000011 @
#398
b0000000000000100 @
#399
b0000000000000001 @
#400
b0000000000000010 @
#401
b0000000000000011 @
b101000 #a
#402
b0000000000000100 @
#403
b0000000000000001 @
#404
b0000000000000010 @
#405
b0000000000000011 @
#406
b0000000000000100 @
#407
b0000000000000001 @
#408
b0000000000000010 @
#409
b0000000000000011 @
b10000 #a
#410
b0000000000000100 @
#411
b0000000000000001 @
#412
b0000000000000010 @
#413
b0000000000000011 @
#414
b0000000000000100 @
#415
b0000000000000001 @
#416
b0000000000000010 @
#417
b0000000000000011 @
#418
b0000000000000100 @
#419
b0000000000000001 @
#420
b0000000000000010 @
#421
b0000000000000011 @
#422
b0000000000000100 @
0$3
#423
b0000000000000001 @
#424
b0000000000000010 @
#425
b0000000000000011 @
b1000 #a
#426
b0000000000000100 @
#427
b0000000000000001 @
#428
b0000000000000010 @
#429
b0000000000000011 @
#430
b0000000000000100 @
#431
b0000000000000001 @
#432
b0000000000000010 @
#433
b0000000000000011 @
b111000 #a
#434
b0000000000000100 @
#435
b0000000000000001 @
#436
b0000000000000010 @
#437
b0000000000000011 @
b110000 #a
#438
b0000000000000100 @
#439
b0000000000000001 @
#440
b0000000000000010 @
#441
b0000000000000011 @
b100000 #a
#442
b0000000000000100 @
#443
b0000000000000001 @
1#C
#444
b0000000000000010 @
#445
b0000000000000011 @
#446
b0000000000000100 @
#447
b0000000000000001 @
0#C
#448
b0000000000000010 @
#449
b0000000000000011 @
#450
b0000000000000100 @
#451
b0000000000000001 @
#452
b0000000000000010 @
#453
b0000000000000011 @
b101000 #a
#454
b0000000000000100 @
#455
b0000000000000001 @
#456
b0000000000000010 @
#457
b0000000000000011 @
#458
b0000000000000100 @
#459
b0000000000000001 @
#460
b0000000000000010 @
#461
b0000000000000011 @
b10000 #a
#462
b0000000000000100 @
#463
b0000000000000001 @
#464
b0000000000000010 @
#465
b0000000000000011 @
#466
b0000000000000100 @
#467
b0000000000000001 @
#468
b0000000000000010 @
#469
b0000000000000011 @
#470
b0000000000000100 @
#471
b0000000000000001 @
#472
b0000000000000010 @
#473
b0000000000000011 @
#474
b0000000000000100 @
1$3
#475
b0000000000000001 @
#476
b0000000000000010 @
#477
b0000000000000011 @
b1000 #a
#478
b0000000000000100 @
#479
b0000000000000001 @
#480
b0000000000000010 @
#481
b0000000000000011 @
#482
b0000000000000100 @
#483
b0000000000000001 @
#484
b0000000000000010 @
#485
b0000000000000011 @
b111000 #a
#486
b0000000000000100 @
#487
b0000000000000001 @
#488
b0000000000000010 @
#489
b0000000000000011 @
b110000 #a
#490
b0000000000000100 @
#491
b0000000000000001 @
#492
b0000000000000010 @
#493
b0000000000000011 @
b100000 #a
#494
b0000000000000100 @
#495
b0000000000000001 @
1#C
#496
b0000000000000010 @
#497
b0000000000000011 @
#498
b0000000000000100 @
#499
b0000000000000001 @
0#C
#500
b0000000000000010 @
#501
b0000000000000011 @
#502
b0000000000000100 @
#503
b0000000000000001 @
#504
b0000000000000010 @
#505
b0000000000000011 @
b101000 #a
#506
b0000000000000100 @
#507
b0000000000000001 @
#508
b0000000000000010 @
#509
b0000000000000011 @
#510
b0000000000000100 @
#511
b0000000000000001 @
#512
b0000000000000010 @
#513
b0000000000000011 @
b10000 #a
#514
b0000000000000100 @
#515
b0000000000000001 @
#516
b0000000000000010 @
#517
b0000000000000011 @
#518
b0000000000000100 @
#519
b0000000000000001 @
#520
b0000000000000010 @
#521
b0000000000000011 @
#522
b0000000000000100 @
#523
b0000000000000001 @
#524
b0000000000000010 @
#525
b0000000000000011 @
#526
b0000000000000100 @
0$3
#527
b0000000000000001 @
#528
b0000000000000010 @
#529
b0000000000000011 @
b1000 #a
#530
b0000000000000100 @
#531
b0000000000000001 @
#532
b0000000000000010 @
#533
b0000000000000011 @
#534
b0000000000000100 @
#535
b0000000000000001 @
#536
b0000000000000010 @
#537
b0000000000000011 @
b111000 #a
#538
b0000000000000100 @
#539
b0000000000000001 @
#540
b0000000000000010 @
#541
b0000000000000011 @
b110000 #a
#542
b0000000000000100 @
#543
b0000000000000001 @
#544
b0000000000000010 @
#545
b0000000000000011 @
b100000 #a
#546
b0000000000000100 @
#547
b0000000000000001 @
1#C
#548
b0000000000000010 @
#549
b0000000000000011 @
#550
b0000000000000100 @
#551
b0000000000000001 @
0#C
#552
b0000000000000010 @
#553
b0000000000000011 @
#554
b0000000000000100 @
#555
b0000000000000001 @
#556
b0000000000000010 @
#557
b0000000000000011 @
b101000 #a
#558
b0000000000000100 @
#559
b0000000000000001 @
#560
b0000000000000010 @
#561
b0000000000000011 @
#562
b0000000000000100 @
#563
b0000000000000001 @
#564
b0000000000000010 @
#565
b0000000000000011 @
b10000 #a
#566
b0000000000000100 @
#567
b0000000000000001 @
#568
b0000000000000010 @
#569
b0000000000000011 @
#570
b0000000000000100 @
#571
b0000000000000001 @
#572
b0000000000000010 @
#573
b0000000000000011 @
#574
b0000000000000100 @
#575
b0000000000000001 @
#576
b0000000000000010 @
#577
b0000000000000011 @
#578
b0000000000000100 @
1$3
#579
b0000000000000001 @
#580
b0000000000000010 @
#581
b0000000000000011 @
b1000 #a
#582
b0000000000000100 @
#583
b0000000000000001 @
#584
b0000000000000010 @
#585
b0000000000000011 @
#586
b0000000000000100 @
#587
b0000000000000001 @
#588
b0000000000000010 @
#589
b0000000000000011 @
b111000 #a
#590
b0000000000000100 @
#591
b0000000000000001 @
#592
b0000000000000010 @
#593
b0000000000000011 @
b110000 #a
#594
b0000000000000100 @
#595
b0000000000000001 @
#596
b0000000000000010 @
#597
b0000000000000011 @
b100000 #a
#598
b0000000000000100 @
#599
b0000000000000001 @
1#C
#600
b0000000000000010 @
#601
b0000000000000011 @
#602
b0000000000000100 @
#603
b0000000000000001 @
0#C
#604
b0000000000000010 @
#605
b0000000000000011 @
#606
b0000000000000100 @
#607
b0000000000000001 @
#608
b0000000000000010 @
#609
b0000000000000011 @
b101000 #a
#610
b0000000000000100 @
#611
b0000000000000001 @
#612
b0000000000000010 @
#613
b0000000000000011 @
#614
b0000000000000100 @
#615
b0000000000000001 @
#616
b0000000000000010 @
#617
b0000000000000011 @
b10000 #a
#618
b0000000000000100 @
#619
b0000000000000001 @
#620
b0000000000000010 @
#621
b0000000000000011 @
#622
b0000000000000100 @
#623
b0000000000000001 @
#624
b0000000000000010 @
#625
b0000000000000011 @
#626
b0000000000000100 @
#627
b0000000000000001 @
#628
b0000000000000010 @
#629
b0000000000000011 @
#630
b0000000000000100 @
0$3
#631
b0000000000000001 @
#632
b0000000000000010 @
#633
b0000000000000011 @
b1000 #a
#634
b0000000000000100 @
#635
b0000000000000001 @
#636
b0000000000000010 @
#637
b0000000000000011 @
#638
b0000000000000100 @
#639
b0000000000000001 @
#640
b0000000000000010 @
#641
b0000000000000011 @
b111000 #a
#642
b0000000000000100 @
#643
b0000000000000001 @
#644
b0000000000000010 @
#645
b0000000000000011 @
b110000 #a
#646
b0000000000000100 @
#647
b0000000000000001 @
#648
b0000000000000010 @
#649
b0000000000000011 @
b100000 #a
#650
b0000000000000100 @
#651
b0000000000000001 @
1#C
#652
b0000000000000010 @
#653
b0000000000000011 @
#654
b0000000000000100 @
#655
b0000000000000001 @
0#C
#656
b0000000000000010 @
#657
b0000000000000011 @
#658
b0000000000000100 @
#659
b0000000000000001 @
#660
b0000000000000010 @
#661
b0000000000000011 @
b101000 #a
#662
b0000000000000100 @
#663
b0000000000000001 @
#664
b0000000000000010 @
#665
b0000000000000011 @
#666
b0000000000000100 @
#667
b0000000000000001 @
#668
b0000000000000010 @
#669
b0000000000000011 @
b10000 #a
#670
b0000000000000100 @
#671
b0000000000000001 @
#672
b0000000000000010 @
#673
b0000000000000011 @
#674
b0000000000000100 @
#675
b0000000000000001 @
#676
b0000000000000010 @
#677
b0000000000000011 @
#678
b0000000000000100 @
#679
b0000000000000001 @
#680
b0000000000000010 @
#681
b0000000000000011 @
#682
b0000000000000100 @
1$3
#683
b0000000000000001 @
#684
b0000000000000010 @
#685
b0000000000000011 @
b1000 #a
#686
b0000000000000100 @
#687
b0000000000000001 @
#688
b0000000000000010 @
#689
b0000000000000011 @
#690
b0000000000000100 @
#691
b0000000000000001 @
#692
b0000000000000010 @
#693
b0000000000000011 @
b111000 #a
#694
b0000000000000100 @
#695
b0000000000000001 @
#696
b0000000000000010 @
#697
b0000000000000011 @
b110000 #a
#698
b0000000000000100 @
#699
b0000000000000001 @
#700
b0000000000000010 @
#701
b0000000000000011 @
b100000 #a
#702
b0000000000000100 @
#703
b0000000000000001 @
1#C
#704
b0000000000000010 @
#705
b0000000000000011 @
#706
b0000000000000100 @
#707
b0000000000000001 @
0#C
#708
b0000000000000010 @
#709
b0000000000000011 @
#710
b0000000000000100 @
#711
b0000000000000001 @
#712
b0000000000000010 @
#713
b0000000000000011 @
b101000 #a
#714
b0000000000000100 @
#715
b0000000000000001 @
#716
b0000000000000010 @
#717
b0000000000000011 @
#718
b0000000000000100 @
#719
b0000000000000001 @
#720
b0000000000000010 @
#721
b0000000000000011 @
b10000 #a
#722
b0000000000000100 @
#723
b0000000000000001 @
#724
b0000000000000010 @
#725
b0000000000000011 @
#726
b0000000000000100 @
#727
b0000000000000001 @
#728
b0000000000000010 @
#729
b0000000000000011 @
#730
b0000000000000100 @
#731
b0000000000000001 @
#732
b0000000000000010 @
#733
b0000000000000011 @
#734
b0000000000000100 @
0$3
#735
b0000000000000001 @
#736
b0000000000000010 @
#737
b0000000000000011 @
b1000 #a
#738
b0000000000000100 @
#739
b0000000000000001 @
#740
b0000000000000010 @
#741
b0000000000000011 @
#742
b0000000000000100 @
#743
b0000000000000001 @
#744
b0000000000000010 @
#745
b0000000000000011 @
b111000 #a
#746
b0000000000000100 @
#747
b0000000000000001 @
#748
b0000000000000010 @
#749
b0000000000000011 @
b110000 #a
#750
b0000000000000100 @
#751
b0000000000000001 @
#752
b0000000000000010 @
#753
b0000000000000011 @
b100000 #a
#754
b0000000000000100 @
#755
b0000000000000001 @
1#C
#756
b0000000000000010 @
#757
b0000000000000011 @
#758
b0000000000000100 @
#759
b0000000000000001 @
0#C
#760
b0000000000000010 @
#761
b0000000000000011 @
#762
b0000000000000100 @
#763
b0000000000000001 @
#764
b0000000000000010 @
#765
b0000000000000011 @
b101000 #a
#766
b0000000000000100 @
#767
b0000000000000001 @
#768
b0000000000000010 @
#769
b0000000000000011 @
#770
b0000000000000100 @
#771
b0000000000000001 @
#772
b0000000000000010 @
#773
b0000000000000011 @
b10000 #a
#774
b0000000000000100 @
#775
b0000000000000001 @
#776
b0000000000000010 @
#777
b0000000000000011 @
#778
b0000000000000100 @
#779
b0000000000000001 @
#780
b0000000000000010 @
#781
b0000000000000011 @
#782
b0000000000000100 @
#783
b0000000000000001 @
#784
b0000000000000010 @
#785
b0000000000000011 @
#786
b0000000000000100 @
1$3
#787
b0000000000000001 @
#788
b0000000000000010 @
#789
b0000000000000011 @
b1000 #a
#790
b0000000000000100 @
#791
b0000000000000001 @
#792
b0000000000000010 @
#793
b0000000000000011 @
#794
b0000000000000100 @
#795
b0000000000000001 @
#796
b0000000000000010 @
#797
b0000000000000011 @
b111000 #a
#798
b0000000000000100 @
#799
b0000000000000001 @
#800
b0000000000000010 @
#801
b0000000000000011 @
b110000 #a
#802
b0000000000000100 @
#803
b0000000000000001 @
#804
b0000000000000010 @
#805
b0000000000000011 @
b100000 #a
#806
b0000000000000100 @
#807
b0000000000000001 @
1#C
#808
b0000000000000010 @
#809
b0000000000000011 @
#810
b0000000000000100 @
#811
b0000000000000001 @
0#C
#812
b0000000000000010 @
#813
b0000000000000011 @
#814
b0000000000000100 @
#815
b0000000000000001 @
#816
b0000000000000010 @
#817
b0000000000000011 @
b101000 #a
#818
b0000000000000100 @
#819
b0000000000000001 @
#820
b0000000000000010 @
#821
b0000000000000011 @
#822
b0000000000000100 @
#823
b0000000000000001 @
#824
b0000000000000010 @
#825
b0000000000000011 @
b10000 #a
#826
b0000000000000100 @
#827
b0000000000000001 @
#828
b0000000000000010 @
#829
b0000000000000011 @
#830
b0000000000000100 @
#831
b0000000000000001 @
#832
b0000000000000010 @
#833
b0000000000000011 @
#834
b0000000000000100 @
#835
b0000000000000001 @
#836
b0000000000000010 @
#837
b0000000000000011 @
#838
b0000000000000100 @
0$3
#839
b0000000000000001 @
#840
b0000000000000010 @
#841
b0000000000000011 @
b1000 #a
#842
b0000000000000100 @
#843
b0000000000000001 @
#844
b0000000000000010 @
#845
b0000000000000011 @
#846
b0000000000000100 @
#847
b0000000000000001 @
#848
b0000000000000010 @
#849
b0000000000000011 @
b111000 #a
#850
b0000000000000100 @
#851
b0000000000000001 @
#852
b0000000000000010 @
#853
b0000000000000011 @
b110000 #a
#854
b0000000000000100 @
#855
b0000000000000001 @
#856
b0000000000000010 @
#857
b0000000000000011 @
b100000 #a
#858
b0000000000000100 @
#859
b0000000000000001 @
1#C
#860
b0000000000000010 @
#861
b0000000000000011 @
#862
b0000000000000100 @
#863
b0000000000000001 @
0#C
#864
b0000000000000010 @
#865
b0000000000000011 @
#866
b0000000000000100 @
#867
b0000000000000001 @
#868
b0000000000000010 @
#869
b0000000000000011 @
b101000 #a
#870
b0000000000000100 @
#871
b0000000000000001 @
#872
b0000000000000010 @
#873
b0000000000000011 @
#874
b0000000000000100 @
#875
b0000000000000001 @
#876
b0000000000000010 @
#877
b0000000000000011 @
b10000 #a
#878
b0000000000000100 @
#879
b0000000000000001 @
#880
b0000000000000010 @
#881
b0000000000000011 @
#882
b0000000000000100 @
#883
b0000000000000001 @
#884
b0000000000000010 @
#885
b0000000000000011 @
#886
b0000000000000100 @
#887
b0000000000000001 @
#888
b0000000000000010 @
#889
b0000000000000011 @
#890
b0000000000000100 @
1$3
#891
b0000000000000001 @
#892
b0000000000000010 @
#893
b0000000000000011 @
b1000 #a
#894
b0000000000000100 @
#895
b0000000000000001 @
#896
b0000000000000010 @
#897
b0000000000000011 @
#898
b0000000000000100 @
#899
b0000000000000001 @
#900
b0000000000000010 @
#901
b0000000000000011 @
b111000 #a
#902
b0000000000000100 @
#903
b0000000000000001 @
#904
b0000000000000010 @
#905
b0000000000000011 @
b110000 #a
#906
b0000000000000100 @
#907
b0000000000000001 @
#908
b0000000000000010 @
#909
b0000000000000011 @
b100000 #a
#910
b0000000000000100 @
#911
b0000000000000001 @
1#C
#912
b0000000000000010 @
#913
b0000000000000011 @
#914
b0000000000000100 @
#915
b0000000000000001 @
0#C
#916
b0000000000000010 @
#917
b0000000000000011 @
#918
b0000000000000100 @
#919
b0000000000000001 @
#920
b0000000000000010 @
#921
b0000000000000011 @
b101000 #a
#922
b0000000000000100 @
#923
b0000000000000001 @
#924
b0000000000000010 @
#925
b0000000000000011 @
#926
b0000000000000100 @
#927
b0000000000000001 @
#928
b0000000000000010 @
#929
b0000000000000011 @
b10000 #a
#930
b0000000000000100 @
#931
b0000000000000001 @
#932
b0000000000000010 @
#933
b0000000000000011 @
#934
b0000000000000100 @
#935
b0000000000000001 @
#936
b0000000000000010 @
#937
b0000000000000011 @
#938
b0000000000000100 @
#939
b0000000000000001 @
#940
b0000000000000010 @
#941
b0000000000000011 @
#942
b0000000000000100 @
0$3
#943
b0000000000000001 @
#944
b0000000000000010 @
#945
b0000000000000011 @
b1000 #a
#946
b0000000000000100 @
#947
b0000000000000001 @
#948
b0000000000000010 @
#949
b0000000000000011 @
#950
b0000000000000100 @
#951
b0000000000000001 @
#952
b0000000000000010 @
#953
b0000000000000011 @
b111000 #a
#954
b0000000000000100 @
#955
b0000000000000001 @
#956
b0000000000000010 @
#957
b0000000000000011 @
b110000 #a
#958
b0000000000000100 @
#959
b0000000000000001 @
#960
b0000000000000010 @
#961
b0000000000000011 @
b100000 #a
#962
b0000000000000100 @
#963
b0000000000000001 @
1#C
#964
b0000000000000010 @
#965
b0000000000000011 @
#966
b0000000000000100 @
#967
b0000000000000001 @
0#C
#968
b0000000000000010 @
#969
b0000000000000011 @
#970
b0000000000000100 @
#971
b0000000000000001 @
#972
b0000000000000010 @
#973
b0000000000000011 @
b101000 #a
#974
b0000000000000100 @
#975
b0000000000000001 @
#976
b0000000000000010 @
#977
b0000000000000011 @
#978
b0000000000000100 @
#979
b0000000000000001 @
#980
b0000000000000010 @
#981
b0000000000000011 @
b10000 #a
#982
b0000000000000100 @
#983
b0000000000000001 @
#984
b0000000000000010 @
#985
b0000000000000011 @
#986
b0000000000000100 @
#987
b0000000000000001 @
#988
b0000000000000010 @
#989
b0000000000000011 @
#990
b0000000000000100 @
#991
b0000000000000001 @
#992
b0000000000000010 @
#993
b0000000000000011 @
#994
b0000000000000100 @
1$3
#995
b0000000000000001 @
#996
b0000000000000010 @
#997
b0000000000000011 @
b1000 #a
#998
b0000000000000100 @
#999
b0000000000000001 @
